demux_32_8_v2/demux_32_8.vcd
$date
	Tue Sep 22 11:12:53 2020
$end
$version
	Icarus Verilog
$end
$timescale
	100ps
$end
$scope module BUF $end
$var wire 1 ! A $end
$var wire 1 " Y $end
$upscope $end
$scope module DFFSR $end
$var wire 1 # C $end
$var wire 1 $ D $end
$var wire 1 % R $end
$var wire 1 & S $end
$var reg 1 ' Q $end
$upscope $end
$scope module banco_demux_32_8 $end
$var wire 1 ( valid_out_estructural $end
$var wire 1 ) valid_out $end
$var wire 1 * valid $end
$var wire 1 + reset $end
$var wire 8 , data_out_estructural [7:0] $end
$var wire 8 - data_out [7:0] $end
$var wire 32 . data_in [31:0] $end
$var wire 1 / clk_f $end
$var wire 1 0 clk_4f $end
$var wire 1 1 clk_2f $end
$scope module u_demux_32_8 $end
$var wire 1 * valid $end
$var wire 1 + reset $end
$var wire 32 2 data_in [31:0] $end
$var wire 1 0 clk_4f $end
$var reg 8 3 data_out [7:0] $end
$var reg 2 4 selector [1:0] $end
$var reg 1 ) valid_out $end
$upscope $end
$scope module u_probador_recirc $end
$var wire 8 5 data_out [7:0] $end
$var wire 1 ) valid_out $end
$var wire 1 ( valid_out_estructural $end
$var wire 8 6 data_out_estructural [7:0] $end
$var reg 1 1 clk_2f $end
$var reg 1 0 clk_4f $end
$var reg 1 / clk_f $end
$var reg 32 7 data_in [31:0] $end
$var reg 1 + reset $end
$var reg 1 * valid $end
$upscope $end
$scope module u_sintetizado32a8_cmos $end
$var wire 1 0 clk_4f $end
$var wire 32 8 data_in [31:0] $end
$var wire 1 + reset $end
$var wire 1 * valid $end
$var wire 1 ( valid_out_estructural $end
$var wire 2 9 selector [1:0] $end
$var wire 8 : data_out_estructural [7:0] $end
$var wire 1 ; _115_ $end
$var wire 1 < _114_ $end
$var wire 1 = _113_ $end
$var wire 1 > _112_ $end
$var wire 1 ? _111_ $end
$var wire 1 @ _110_ $end
$var wire 1 A _109_ $end
$var wire 1 B _108_ $end
$var wire 1 C _107_ $end
$var wire 1 D _106_ $end
$var wire 1 E _105_ $end
$var wire 1 F _104_ $end
$var wire 1 G _103_ $end
$var wire 1 H _102_ $end
$var wire 1 I _101_ $end
$var wire 1 J _100_ $end
$var wire 1 K _099_ $end
$var wire 1 L _098_ $end
$var wire 1 M _097_ $end
$var wire 1 N _096_ $end
$var wire 1 O _095_ $end
$var wire 1 P _094_ $end
$var wire 1 Q _093_ $end
$var wire 1 R _092_ $end
$var wire 1 S _091_ $end
$var wire 1 T _090_ $end
$var wire 1 U _089_ $end
$var wire 1 V _088_ $end
$var wire 1 W _087_ $end
$var wire 1 X _086_ $end
$var wire 1 Y _085_ $end
$var wire 1 Z _084_ $end
$var wire 1 [ _083_ $end
$var wire 1 \ _082_ $end
$var wire 1 ] _081_ $end
$var wire 1 ^ _080_ $end
$var wire 1 _ _079_ $end
$var wire 1 ` _078_ $end
$var wire 1 a _077_ $end
$var wire 1 b _076_ $end
$var wire 1 c _075_ $end
$var wire 1 d _074_ $end
$var wire 1 e _073_ $end
$var wire 1 f _072_ $end
$var wire 1 g _071_ $end
$var wire 1 h _070_ $end
$var wire 1 i _069_ $end
$var wire 1 j _068_ $end
$var wire 1 k _067_ $end
$var wire 1 l _066_ $end
$var wire 1 m _065_ $end
$var wire 1 n _064_ $end
$var wire 1 o _063_ $end
$var wire 1 p _062_ $end
$var wire 1 q _061_ $end
$var wire 1 r _060_ $end
$var wire 1 s _059_ $end
$var wire 1 t _058_ $end
$var wire 1 u _057_ $end
$var wire 1 v _056_ $end
$var wire 1 w _055_ $end
$var wire 1 x _054_ $end
$var wire 1 y _053_ $end
$var wire 1 z _052_ $end
$var wire 1 { _051_ $end
$var wire 1 | _050_ $end
$var wire 1 } _049_ $end
$var wire 1 ~ _048_ $end
$var wire 1 !" _047_ $end
$var wire 1 "" _046_ $end
$var wire 1 #" _045_ $end
$var wire 1 $" _044_ $end
$var wire 1 %" _043_ $end
$var wire 1 &" _042_ $end
$var wire 1 '" _041_ $end
$var wire 1 (" _040_ $end
$var wire 1 )" _039_ $end
$var wire 1 *" _038_ $end
$var wire 1 +" _037_ $end
$var wire 1 ," _036_ $end
$var wire 1 -" _035_ $end
$var wire 1 ." _034_ $end
$var wire 1 /" _033_ $end
$var wire 1 0" _032_ $end
$var wire 1 1" _031_ $end
$var wire 1 2" _030_ $end
$var wire 1 3" _029_ $end
$var wire 1 4" _028_ $end
$var wire 1 5" _027_ $end
$var wire 1 6" _026_ $end
$var wire 1 7" _025_ $end
$var wire 1 8" _024_ $end
$var wire 1 9" _023_ $end
$var wire 1 :" _022_ $end
$var wire 1 ;" _021_ $end
$var wire 1 <" _020_ $end
$var wire 1 =" _019_ $end
$var wire 1 >" _018_ $end
$var wire 1 ?" _017_ $end
$var wire 1 @" _016_ $end
$var wire 1 A" _015_ $end
$var wire 1 B" _014_ $end
$var wire 1 C" _013_ $end
$var wire 1 D" _012_ $end
$var wire 1 E" _011_ $end
$var wire 1 F" _010_ $end
$var wire 1 G" _009_ $end
$var wire 1 H" _008_ $end
$var wire 1 I" _007_ $end
$var wire 1 J" _006_ $end
$var wire 1 K" _005_ $end
$var wire 1 L" _004_ $end
$var wire 1 M" _003_ $end
$var wire 1 N" _002_ $end
$var wire 2 O" _001_ [1:0] $end
$var wire 8 P" _000_ [7:0] $end
$scope module _116_ $end
$var wire 1 Q" A $end
$var wire 1 d Y $end
$upscope $end
$scope module _117_ $end
$var wire 1 R" A $end
$var wire 1 c Y $end
$upscope $end
$scope module _118_ $end
$var wire 1 S" A $end
$var wire 1 b Y $end
$upscope $end
$scope module _119_ $end
$var wire 1 T" A $end
$var wire 1 a Y $end
$upscope $end
$scope module _120_ $end
$var wire 1 U" A $end
$var wire 1 ` Y $end
$upscope $end
$scope module _121_ $end
$var wire 1 V" A $end
$var wire 1 _ Y $end
$upscope $end
$scope module _122_ $end
$var wire 1 W" A $end
$var wire 1 ^ Y $end
$upscope $end
$scope module _123_ $end
$var wire 1 X" A $end
$var wire 1 ] Y $end
$upscope $end
$scope module _124_ $end
$var wire 1 Y" A $end
$var wire 1 \ Y $end
$upscope $end
$scope module _125_ $end
$var wire 1 Z" A $end
$var wire 1 [ Y $end
$upscope $end
$scope module _126_ $end
$var wire 1 [" A $end
$var wire 1 Z Y $end
$upscope $end
$scope module _127_ $end
$var wire 1 \" A $end
$var wire 1 Y Y $end
$upscope $end
$scope module _128_ $end
$var wire 1 ]" A $end
$var wire 1 X Y $end
$upscope $end
$scope module _129_ $end
$var wire 1 ^" A $end
$var wire 1 W Y $end
$upscope $end
$scope module _130_ $end
$var wire 1 _" A $end
$var wire 1 V Y $end
$upscope $end
$scope module _131_ $end
$var wire 1 `" A $end
$var wire 1 U Y $end
$upscope $end
$scope module _132_ $end
$var wire 1 a" A $end
$var wire 1 T Y $end
$upscope $end
$scope module _133_ $end
$var wire 1 b" A $end
$var wire 1 S Y $end
$upscope $end
$scope module _134_ $end
$var wire 1 c" A $end
$var wire 1 R Y $end
$upscope $end
$scope module _135_ $end
$var wire 1 d" A $end
$var wire 1 Q Y $end
$upscope $end
$scope module _136_ $end
$var wire 1 e" A $end
$var wire 1 P Y $end
$upscope $end
$scope module _137_ $end
$var wire 1 f" A $end
$var wire 1 O Y $end
$upscope $end
$scope module _138_ $end
$var wire 1 g" A $end
$var wire 1 N Y $end
$upscope $end
$scope module _139_ $end
$var wire 1 h" A $end
$var wire 1 M Y $end
$upscope $end
$scope module _140_ $end
$var wire 1 i" A $end
$var wire 1 L Y $end
$upscope $end
$scope module _141_ $end
$var wire 1 j" A $end
$var wire 1 K Y $end
$upscope $end
$scope module _142_ $end
$var wire 1 k" A $end
$var wire 1 J Y $end
$upscope $end
$scope module _143_ $end
$var wire 1 l" A $end
$var wire 1 I Y $end
$upscope $end
$scope module _144_ $end
$var wire 1 m" A $end
$var wire 1 H Y $end
$upscope $end
$scope module _145_ $end
$var wire 1 n" A $end
$var wire 1 G Y $end
$upscope $end
$scope module _146_ $end
$var wire 1 o" A $end
$var wire 1 F Y $end
$upscope $end
$scope module _147_ $end
$var wire 1 p" A $end
$var wire 1 E Y $end
$upscope $end
$scope module _148_ $end
$var wire 1 q" A $end
$var wire 1 D Y $end
$upscope $end
$scope module _149_ $end
$var wire 1 r" A $end
$var wire 1 C Y $end
$upscope $end
$scope module _150_ $end
$var wire 1 * A $end
$var wire 1 + B $end
$var wire 1 B Y $end
$upscope $end
$scope module _151_ $end
$var wire 1 B A $end
$var wire 1 N" Y $end
$upscope $end
$scope module _152_ $end
$var wire 1 d A $end
$var wire 1 c B $end
$var wire 1 A Y $end
$upscope $end
$scope module _153_ $end
$var wire 1 J A $end
$var wire 1 A B $end
$var wire 1 @ Y $end
$upscope $end
$scope module _154_ $end
$var wire 1 s" A $end
$var wire 1 t" B $end
$var wire 1 ? Y $end
$upscope $end
$scope module _155_ $end
$var wire 1 ? A $end
$var wire 1 > Y $end
$upscope $end
$scope module _156_ $end
$var wire 1 Z A $end
$var wire 1 ? B $end
$var wire 1 = Y $end
$upscope $end
$scope module _157_ $end
$var wire 1 @ A $end
$var wire 1 = B $end
$var wire 1 < Y $end
$upscope $end
$scope module _158_ $end
$var wire 1 u" A $end
$var wire 1 c B $end
$var wire 1 ; Y $end
$upscope $end
$scope module _159_ $end
$var wire 1 b A $end
$var wire 1 ; B $end
$var wire 1 M" Y $end
$upscope $end
$scope module _160_ $end
$var wire 1 d A $end
$var wire 1 v" B $end
$var wire 1 L" Y $end
$upscope $end
$scope module _161_ $end
$var wire 1 R A $end
$var wire 1 L" B $end
$var wire 1 K" Y $end
$upscope $end
$scope module _162_ $end
$var wire 1 M" A $end
$var wire 1 K" B $end
$var wire 1 J" Y $end
$upscope $end
$scope module _163_ $end
$var wire 1 < A $end
$var wire 1 J" B $end
$var wire 1 I" Y $end
$upscope $end
$scope module _164_ $end
$var wire 1 N" A $end
$var wire 1 I" B $end
$var wire 1 H" Y $end
$upscope $end
$scope module _165_ $end
$var wire 1 w" A $end
$var wire 1 B B $end
$var wire 1 G" Y $end
$upscope $end
$scope module _166_ $end
$var wire 1 H" A $end
$var wire 1 G" B $end
$var wire 1 x" Y $end
$upscope $end
$scope module _167_ $end
$var wire 1 I A $end
$var wire 1 A B $end
$var wire 1 F" Y $end
$upscope $end
$scope module _168_ $end
$var wire 1 Y A $end
$var wire 1 ? B $end
$var wire 1 E" Y $end
$upscope $end
$scope module _169_ $end
$var wire 1 F" A $end
$var wire 1 E" B $end
$var wire 1 D" Y $end
$upscope $end
$scope module _170_ $end
$var wire 1 a A $end
$var wire 1 ; B $end
$var wire 1 C" Y $end
$upscope $end
$scope module _171_ $end
$var wire 1 Q A $end
$var wire 1 L" B $end
$var wire 1 B" Y $end
$upscope $end
$scope module _172_ $end
$var wire 1 C" A $end
$var wire 1 B" B $end
$var wire 1 A" Y $end
$upscope $end
$scope module _173_ $end
$var wire 1 D" A $end
$var wire 1 A" B $end
$var wire 1 @" Y $end
$upscope $end
$scope module _174_ $end
$var wire 1 N" A $end
$var wire 1 @" B $end
$var wire 1 ?" Y $end
$upscope $end
$scope module _175_ $end
$var wire 1 y" A $end
$var wire 1 B B $end
$var wire 1 >" Y $end
$upscope $end
$scope module _176_ $end
$var wire 1 ?" A $end
$var wire 1 >" B $end
$var wire 1 z" Y $end
$upscope $end
$scope module _177_ $end
$var wire 1 P A $end
$var wire 1 L" B $end
$var wire 1 =" Y $end
$upscope $end
$scope module _178_ $end
$var wire 1 ` A $end
$var wire 1 ; B $end
$var wire 1 <" Y $end
$upscope $end
$scope module _179_ $end
$var wire 1 =" A $end
$var wire 1 <" B $end
$var wire 1 ;" Y $end
$upscope $end
$scope module _180_ $end
$var wire 1 X A $end
$var wire 1 ? B $end
$var wire 1 :" Y $end
$upscope $end
$scope module _181_ $end
$var wire 1 H A $end
$var wire 1 A B $end
$var wire 1 9" Y $end
$upscope $end
$scope module _182_ $end
$var wire 1 :" A $end
$var wire 1 9" B $end
$var wire 1 8" Y $end
$upscope $end
$scope module _183_ $end
$var wire 1 ;" A $end
$var wire 1 8" B $end
$var wire 1 7" Y $end
$upscope $end
$scope module _184_ $end
$var wire 1 N" A $end
$var wire 1 7" B $end
$var wire 1 6" Y $end
$upscope $end
$scope module _185_ $end
$var wire 1 {" A $end
$var wire 1 B B $end
$var wire 1 5" Y $end
$upscope $end
$scope module _186_ $end
$var wire 1 6" A $end
$var wire 1 5" B $end
$var wire 1 |" Y $end
$upscope $end
$scope module _187_ $end
$var wire 1 O A $end
$var wire 1 L" B $end
$var wire 1 4" Y $end
$upscope $end
$scope module _188_ $end
$var wire 1 _ A $end
$var wire 1 ; B $end
$var wire 1 3" Y $end
$upscope $end
$scope module _189_ $end
$var wire 1 4" A $end
$var wire 1 3" B $end
$var wire 1 2" Y $end
$upscope $end
$scope module _190_ $end
$var wire 1 W A $end
$var wire 1 ? B $end
$var wire 1 1" Y $end
$upscope $end
$scope module _191_ $end
$var wire 1 G A $end
$var wire 1 A B $end
$var wire 1 0" Y $end
$upscope $end
$scope module _192_ $end
$var wire 1 1" A $end
$var wire 1 0" B $end
$var wire 1 /" Y $end
$upscope $end
$scope module _193_ $end
$var wire 1 2" A $end
$var wire 1 /" B $end
$var wire 1 ." Y $end
$upscope $end
$scope module _194_ $end
$var wire 1 N" A $end
$var wire 1 ." B $end
$var wire 1 -" Y $end
$upscope $end
$scope module _195_ $end
$var wire 1 }" A $end
$var wire 1 B B $end
$var wire 1 ," Y $end
$upscope $end
$scope module _196_ $end
$var wire 1 -" A $end
$var wire 1 ," B $end
$var wire 1 ~" Y $end
$upscope $end
$scope module _197_ $end
$var wire 1 F A $end
$var wire 1 A B $end
$var wire 1 +" Y $end
$upscope $end
$scope module _198_ $end
$var wire 1 V A $end
$var wire 1 ? B $end
$var wire 1 *" Y $end
$upscope $end
$scope module _199_ $end
$var wire 1 +" A $end
$var wire 1 *" B $end
$var wire 1 )" Y $end
$upscope $end
$scope module _200_ $end
$var wire 1 ^ A $end
$var wire 1 ; B $end
$var wire 1 (" Y $end
$upscope $end
$scope module _201_ $end
$var wire 1 N A $end
$var wire 1 L" B $end
$var wire 1 '" Y $end
$upscope $end
$scope module _202_ $end
$var wire 1 (" A $end
$var wire 1 '" B $end
$var wire 1 &" Y $end
$upscope $end
$scope module _203_ $end
$var wire 1 )" A $end
$var wire 1 &" B $end
$var wire 1 %" Y $end
$upscope $end
$scope module _204_ $end
$var wire 1 N" A $end
$var wire 1 %" B $end
$var wire 1 $" Y $end
$upscope $end
$scope module _205_ $end
$var wire 1 !# A $end
$var wire 1 B B $end
$var wire 1 #" Y $end
$upscope $end
$scope module _206_ $end
$var wire 1 $" A $end
$var wire 1 #" B $end
$var wire 1 "# Y $end
$upscope $end
$scope module _207_ $end
$var wire 1 E A $end
$var wire 1 A B $end
$var wire 1 "" Y $end
$upscope $end
$scope module _208_ $end
$var wire 1 U A $end
$var wire 1 ? B $end
$var wire 1 !" Y $end
$upscope $end
$scope module _209_ $end
$var wire 1 "" A $end
$var wire 1 !" B $end
$var wire 1 ~ Y $end
$upscope $end
$scope module _210_ $end
$var wire 1 ] A $end
$var wire 1 ; B $end
$var wire 1 } Y $end
$upscope $end
$scope module _211_ $end
$var wire 1 M A $end
$var wire 1 L" B $end
$var wire 1 | Y $end
$upscope $end
$scope module _212_ $end
$var wire 1 } A $end
$var wire 1 | B $end
$var wire 1 { Y $end
$upscope $end
$scope module _213_ $end
$var wire 1 ~ A $end
$var wire 1 { B $end
$var wire 1 z Y $end
$upscope $end
$scope module _214_ $end
$var wire 1 N" A $end
$var wire 1 z B $end
$var wire 1 y Y $end
$upscope $end
$scope module _215_ $end
$var wire 1 ## A $end
$var wire 1 B B $end
$var wire 1 x Y $end
$upscope $end
$scope module _216_ $end
$var wire 1 y A $end
$var wire 1 x B $end
$var wire 1 $# Y $end
$upscope $end
$scope module _217_ $end
$var wire 1 D A $end
$var wire 1 A B $end
$var wire 1 w Y $end
$upscope $end
$scope module _218_ $end
$var wire 1 T A $end
$var wire 1 ? B $end
$var wire 1 v Y $end
$upscope $end
$scope module _219_ $end
$var wire 1 w A $end
$var wire 1 v B $end
$var wire 1 u Y $end
$upscope $end
$scope module _220_ $end
$var wire 1 \ A $end
$var wire 1 ; B $end
$var wire 1 t Y $end
$upscope $end
$scope module _221_ $end
$var wire 1 L A $end
$var wire 1 L" B $end
$var wire 1 s Y $end
$upscope $end
$scope module _222_ $end
$var wire 1 t A $end
$var wire 1 s B $end
$var wire 1 r Y $end
$upscope $end
$scope module _223_ $end
$var wire 1 u A $end
$var wire 1 r B $end
$var wire 1 q Y $end
$upscope $end
$scope module _224_ $end
$var wire 1 N" A $end
$var wire 1 q B $end
$var wire 1 p Y $end
$upscope $end
$scope module _225_ $end
$var wire 1 %# A $end
$var wire 1 B B $end
$var wire 1 o Y $end
$upscope $end
$scope module _226_ $end
$var wire 1 p A $end
$var wire 1 o B $end
$var wire 1 &# Y $end
$upscope $end
$scope module _227_ $end
$var wire 1 C A $end
$var wire 1 A B $end
$var wire 1 n Y $end
$upscope $end
$scope module _228_ $end
$var wire 1 S A $end
$var wire 1 ? B $end
$var wire 1 m Y $end
$upscope $end
$scope module _229_ $end
$var wire 1 n A $end
$var wire 1 m B $end
$var wire 1 l Y $end
$upscope $end
$scope module _230_ $end
$var wire 1 [ A $end
$var wire 1 ; B $end
$var wire 1 k Y $end
$upscope $end
$scope module _231_ $end
$var wire 1 K A $end
$var wire 1 L" B $end
$var wire 1 j Y $end
$upscope $end
$scope module _232_ $end
$var wire 1 k A $end
$var wire 1 j B $end
$var wire 1 i Y $end
$upscope $end
$scope module _233_ $end
$var wire 1 l A $end
$var wire 1 i B $end
$var wire 1 h Y $end
$upscope $end
$scope module _234_ $end
$var wire 1 N" A $end
$var wire 1 h B $end
$var wire 1 g Y $end
$upscope $end
$scope module _235_ $end
$var wire 1 '# A $end
$var wire 1 B B $end
$var wire 1 f Y $end
$upscope $end
$scope module _236_ $end
$var wire 1 g A $end
$var wire 1 f B $end
$var wire 1 (# Y $end
$upscope $end
$scope module _237_ $end
$var wire 1 )# A $end
$var wire 1 B B $end
$var wire 1 *# Y $end
$upscope $end
$scope module _238_ $end
$var wire 1 N" A $end
$var wire 1 A B $end
$var wire 1 e Y $end
$upscope $end
$scope module _239_ $end
$var wire 1 > A $end
$var wire 1 e B $end
$var wire 1 +# Y $end
$upscope $end
$scope module _240_ $end
$var wire 1 0 C $end
$var wire 1 ,# D $end
$var reg 1 -# Q $end
$upscope $end
$scope module _241_ $end
$var wire 1 0 C $end
$var wire 1 .# D $end
$var reg 1 /# Q $end
$upscope $end
$scope module _242_ $end
$var wire 1 0 C $end
$var wire 1 0# D $end
$var reg 1 1# Q $end
$upscope $end
$scope module _243_ $end
$var wire 1 0 C $end
$var wire 1 2# D $end
$var reg 1 3# Q $end
$upscope $end
$scope module _244_ $end
$var wire 1 0 C $end
$var wire 1 4# D $end
$var reg 1 5# Q $end
$upscope $end
$scope module _245_ $end
$var wire 1 0 C $end
$var wire 1 6# D $end
$var reg 1 7# Q $end
$upscope $end
$scope module _246_ $end
$var wire 1 0 C $end
$var wire 1 8# D $end
$var reg 1 9# Q $end
$upscope $end
$scope module _247_ $end
$var wire 1 0 C $end
$var wire 1 :# D $end
$var reg 1 ;# Q $end
$upscope $end
$scope module _248_ $end
$var wire 1 0 C $end
$var wire 1 <# D $end
$var reg 1 =# Q $end
$upscope $end
$scope module _249_ $end
$var wire 1 0 C $end
$var wire 1 ># D $end
$var reg 1 ?# Q $end
$upscope $end
$scope module _250_ $end
$var wire 1 0 C $end
$var wire 1 N" D $end
$var reg 1 ( Q $end
$upscope $end
$upscope $end
$upscope $end
$enddefinitions $end
#0
$dumpvars
x?#
x>#
x=#
x<#
x;#
x:#
x9#
x8#
x7#
x6#
x5#
x4#
x3#
x2#
x1#
x0#
x/#
0.#
x-#
0,#
0+#
0*#
x)#
x(#
x'#
x&#
x%#
x$#
x##
x"#
x!#
x~"
x}"
x|"
x{"
xz"
xy"
xx"
xw"
xv"
xu"
xt"
xs"
0r"
0q"
0p"
0o"
0n"
0m"
0l"
0k"
1j"
0i"
1h"
1g"
1f"
0e"
1d"
1c"
0b"
0a"
1`"
1_"
0^"
0]"
1\"
1["
1Z"
1Y"
1X"
0W"
1V"
1U"
1T"
0S"
xR"
xQ"
bx P"
b0 O"
0N"
0M"
xL"
xK"
xJ"
xI"
1H"
xG"
0F"
xE"
xD"
xC"
xB"
xA"
x@"
1?"
x>"
0="
x<"
x;"
0:"
09"
18"
x7"
16"
x5"
x4"
x3"
x2"
01"
00"
1/"
x."
1-"
x,"
0+"
x*"
x)"
0("
x'"
x&"
x%"
1$"
x#"
0""
x!"
x~
x}
x|
x{
xz
1y
xx
0w
0v
1u
xt
0s
xr
xq
1p
xo
0n
0m
1l
xk
xj
xi
xh
1g
xf
1e
xd
xc
1b
0a
0`
0_
1^
0]
0\
0[
0Z
0Y
1X
1W
0V
0U
1T
1S
0R
0Q
1P
0O
0N
0M
1L
0K
1J
1I
1H
1G
1F
1E
1D
1C
1B
xA
0@
x?
x>
x=
x<
x;
bx :
bx 9
b111011101011101100110011 8
b111011101011101100110011 7
bx 6
bx 5
bx 4
bx 3
b111011101011101100110011 2
01
00
0/
b111011101011101100110011 .
bx -
bx ,
0+
0*
x)
x(
x'
z&
z%
z$
z#
z"
z!
$end
#10000000
07"
0q
0."
0h
0I"
0@"
0%"
0z
1;"
1r
1J"
1A"
12"
1&"
1{
1i
1<
1D"
1)"
1~
0C"
0<"
03"
0}
0t
0k
0K"
0B"
04"
0'"
0|
0j
0=
0E"
0*"
0!"
0>
0A
1;
1L"
1?
1d
1c
0)#
0u"
0s"
0Q"
0v"
0t"
0R"
0)
b0 4
0-#
b0 9
0/#
0(
10
#20000000
00
11
#30000000
10
#40000000
0?"
06"
0-"
0y
0p
0g
1@"
17"
1."
1z
1q
1h
00#
12#
14#
16#
08#
1:#
1<#
1>#
0D"
08"
0/"
0~
0u
0l
0x"
1z"
1|"
1~"
0"#
1$#
1&#
b11101110 P"
1(#
1,#
1F"
19"
10"
1""
1w
1n
1G"
1>"
15"
1,"
1#"
1x
1o
1f
b1 O"
1*#
1N"
0b
0^
1Z
1Y
1V
1U
1Q
1M
0I
0H
0G
0E
0D
0C
0B
1S"
1W"
0["
0\"
0_"
0`"
0d"
0h"
1l"
1m"
1n"
1p"
1q"
1r"
b11101110111111111001100100000000 .
b11101110111111111001100100000000 2
b11101110111111111001100100000000 7
b11101110111111111001100100000000 8
1*
1+
00
01
1/
#50000000
10#
18#
1x"
b11111111 P"
1"#
0H"
0$"
1I"
1%"
1.#
1D"
18"
1/"
1~
1u
1l
1+#
0J"
0A"
0;"
02"
0&"
0{
0r
0i
0F"
09"
00"
0""
0w
0n
0e
1M"
1C"
1<"
13"
1("
1}
1t
1k
0,#
1A
b10 O"
0*#
0;
0d
1)#
1u"
1s"
1Q"
0w"
1y"
1{"
1}"
0!#
1##
1%#
1'#
b1 4
1)
b11101110 -
b11101110 3
b11101110 5
b1 9
1-#
01#
13#
15#
17#
09#
1;#
1=#
b11101110 ,
b11101110 6
b11101110 :
1?#
1(
10
#60000000
00
11
#70000000
02#
04#
0:#
0<#
0z"
0|"
0$#
b10011001 P"
0&#
1?"
16"
1y
1p
0@"
07"
0z
0q
1A"
1;"
1{
1r
1K"
14"
1'"
1j
0M"
0C"
0<"
03"
0("
0}
0t
0k
1,#
0L"
b11 O"
1*#
1;
0c
1d
1!#
1w"
1v"
1t"
1R"
0)#
0u"
0s"
0Q"
19#
b11111111 ,
b11111111 6
b11111111 :
11#
1/#
b10 9
0-#
b10 4
b11111111 -
b11111111 3
b11111111 5
10
#80000000
00
01
0/
#90000000
00#
06#
08#
0>#
0x"
0~"
0"#
b0 P"
0(#
1H"
1-"
1$"
1g
0I"
0."
0%"
0h
1J"
12"
1&"
1i
0.#
0+#
0K"
04"
0'"
0j
0,#
1>
1L"
b0 O"
0*#
0?
0d
1)#
1u"
1s"
1Q"
0y"
0{"
0##
0%#
b11 4
b10011001 -
b10011001 3
b10011001 5
b11 9
1-#
03#
05#
0;#
b10011001 ,
b10011001 6
b10011001 :
0=#
10
#100000000
00
11
#110000000
12#
14#
16#
1:#
1<#
1>#
1z"
1|"
1~"
1$#
1&#
b11101110 P"
1(#
0?"
06"
0-"
0y
0p
0g
1@"
17"
1."
1z
1q
1h
0D"
08"
0/"
0~
0u
0l
0.#
0+#
1F"
19"
10"
1""
1w
1n
1e
1,#
0>
0A
b1 O"
1*#
1?
1c
1d
0'#
0!#
0}"
0w"
0v"
0t"
0R"
0)#
0u"
0s"
0Q"
0?#
09#
07#
b0 ,
b0 6
b0 :
01#
0/#
b0 9
0-#
b0 4
b0 -
b0 3
b0 5
10
#120000000
10#
18#
1x"
b11111111 P"
1"#
0H"
0$"
1I"
1%"
0<
0)"
1@
1+"
1b
1`
1^
1\
0Y
0U
0Q
0M
0J
0F
0S"
0U"
0W"
0Y"
1\"
1`"
1d"
1h"
1k"
1o"
b11111111101010101011101100100010 .
b11111111101010101011101100100010 2
b11111111101010101011101100100010 7
b11111111101010101011101100100010 8
00
01
1/
#130000000
00#
04#
08#
0<#
0x"
0|"
0"#
b10101010 P"
0&#
1H"
16"
1$"
1p
0I"
07"
0%"
0q
1.#
1<
1D"
18"
1/"
1)"
1~
1u
1l
1+#
0A"
02"
0{
0i
0@
0F"
09"
00"
0+"
0""
0w
0n
0e
1C"
13"
1}
1k
0,#
1A
b10 O"
0*#
0;
0d
1)#
1u"
1s"
1Q"
1w"
1y"
1{"
1}"
1!#
1##
1%#
1'#
b1 4
b11111111 -
b11111111 3
b11111111 5
b1 9
1-#
11#
13#
15#
17#
19#
1;#
1=#
b11111111 ,
b11111111 6
b11111111 :
1?#
10
#140000000
00
11
#150000000
10#
18#
1x"
b10111011 P"
1"#
0H"
0$"
1I"
1%"
0J"
0&"
1K"
1B"
14"
1'"
1|
1j
0C"
03"
0}
0k
1,#
0L"
b11 O"
1*#
1;
0c
1d
0%#
0!#
0{"
0w"
1v"
1t"
1R"
0)#
0u"
0s"
0Q"
0=#
09#
05#
b10101010 ,
b10101010 6
b10101010 :
01#
1/#
b10 9
0-#
b10 4
b10101010 -
b10101010 3
b10101010 5
10
#160000000
00
01
0/
#170000000
00#
06#
08#
0>#
0x"
0~"
0"#
b100010 P"
0(#
1H"
1-"
1$"
1g
0I"
0."
0%"
0h
1J"
1A"
12"
1&"
1{
1i
0.#
0D"
0~
0+#
0K"
0B"
04"
0'"
0|
0j
1E"
1!"
0,#
1>
1L"
b0 O"
0*#
0?
0d
1)#
1u"
1s"
1Q"
1w"
1!#
b11 4
b10111011 -
b10111011 3
b10111011 5
b11 9
1-#
11#
b10111011 ,
b10111011 6
b10111011 :
19#
10
#180000000
00
11
#190000000
10#
14#
16#
18#
1<#
1>#
1x"
1|"
1~"
1"#
1&#
b11111111 P"
1(#
0H"
06"
0-"
0$"
0p
0g
1I"
17"
1."
1%"
1q
1h
0<
08"
0/"
0)"
0u
0l
0.#
0+#
1@
1F"
19"
10"
1+"
1""
1w
1n
1e
0E"
0!"
1,#
0>
0A
b1 O"
1*#
1?
1c
1d
0'#
0!#
0}"
0w"
0v"
0t"
0R"
0)#
0u"
0s"
0Q"
0?#
09#
07#
b100010 ,
b100010 6
b100010 :
01#
0/#
b0 9
0-#
b0 4
b100010 -
b100010 3
b100010 5
10
#200000000
02#
b11111101 P"
0z"
1?"
0@"
1D"
0F"
0b
1a
0`
1_
0^
1]
0\
1[
1Y
0W
1U
0S
1R
1Q
0P
1O
1N
1M
0L
1K
1I
1S"
0T"
1U"
0V"
1W"
0X"
1Y"
0Z"
0\"
1^"
0`"
1b"
0c"
0d"
1e"
0f"
0g"
0h"
1i"
0j"
0l"
b11111101010101010100010010001000 .
b11111101010101010100010010001000 2
b11111101010101010100010010001000 7
b11111101010101010100010010001000 8
00
01
1/
#210000000
06#
0:#
0>#
0~"
0$#
b1010101 P"
0(#
1-"
1y
1g
0."
0z
0h
1.#
1<
18"
1/"
1)"
1~
1u
1l
1+#
0J"
0;"
0&"
0r
0@
09"
00"
0+"
0""
0w
0n
0e
1M"
1<"
1("
1t
0,#
1A
b10 O"
0*#
0;
0d
1)#
1u"
1s"
1Q"
1w"
0y"
1{"
1}"
1!#
1%#
1'#
b1 4
b11111101 -
b11111101 3
b11111101 5
b1 9
1-#
11#
03#
15#
17#
19#
1=#
b11111101 ,
b11111101 6
b11111101 :
1?#
10
#220000000
00
11
#230000000
00#
08#
0x"
b1000100 P"
0"#
1H"
1$"
0I"
0%"
1J"
1&"
1="
1s
0M"
0<"
0("
0t
1,#
0L"
b11 O"
1*#
1;
0c
1d
0'#
0##
0}"
1v"
1t"
1R"
0)#
0u"
0s"
0Q"
0?#
0;#
b1010101 ,
b1010101 6
b1010101 :
07#
1/#
b10 9
0-#
b10 4
b1010101 -
b1010101 3
b1010101 5
10
#240000000
00
01
0/
#250000000
04#
0<#
16#
1>#
0|"
0&#
1~"
b10001000 P"
1(#
16"
1p
0-"
0g
07"
0q
1."
1h
1;"
1r
0.#
0/"
0l
0+#
0="
0s
11"
1m
0,#
1>
1L"
b0 O"
0*#
0?
0d
1)#
1u"
1s"
1Q"
0w"
0!#
b11 4
b1000100 -
b1000100 3
b1000100 5
b11 9
1-#
01#
b1000100 ,
b1000100 6
b1000100 :
09#
10
#260000000
00
11
