demux_32_8_v2/demux_32_8.vcd
$date
	Tue Sep 22 11:59:16 2020
$end
$version
	Icarus Verilog
$end
$timescale
	100ps
$end
$scope module BUF $end
$var wire 1 ! A $end
$var wire 1 " Y $end
$upscope $end
$scope module DFFSR $end
$var wire 1 # C $end
$var wire 1 $ D $end
$var wire 1 % R $end
$var wire 1 & S $end
$var reg 1 ' Q $end
$upscope $end
$scope module banco_demux_32_8 $end
$var wire 1 ( valid_out_estructural $end
$var wire 1 ) valid_out $end
$var wire 1 * valid $end
$var wire 1 + reset $end
$var wire 8 , data_out_estructural [7:0] $end
$var wire 8 - data_out [7:0] $end
$var wire 32 . data_in [31:0] $end
$var wire 1 / clk_f $end
$var wire 1 0 clk_4f $end
$var wire 1 1 clk_2f $end
$scope module u_demux_32_8 $end
$var wire 1 * valid $end
$var wire 1 + reset $end
$var wire 32 2 data_in [31:0] $end
$var wire 1 0 clk_4f $end
$var reg 8 3 data_out [7:0] $end
$var reg 2 4 selector [1:0] $end
$var reg 1 ) valid_out $end
$upscope $end
$scope module u_probador_recirc $end
$var wire 8 5 data_out [7:0] $end
$var wire 1 ) valid_out $end
$var wire 1 ( valid_out_estructural $end
$var wire 8 6 data_out_estructural [7:0] $end
$var reg 1 1 clk_2f $end
$var reg 1 0 clk_4f $end
$var reg 1 / clk_f $end
$var reg 32 7 data_in [31:0] $end
$var reg 1 + reset $end
$var reg 1 * valid $end
$upscope $end
$scope module u_sintetizado32a8_cmos $end
$var wire 1 0 clk_4f $end
$var wire 32 8 data_in [31:0] $end
$var wire 1 + reset $end
$var wire 1 * valid $end
$var wire 1 ( valid_out_estructural $end
$var wire 2 9 selector [1:0] $end
$var wire 8 : data_out_estructural [7:0] $end
$var wire 1 ; _107_ $end
$var wire 1 < _106_ $end
$var wire 1 = _105_ $end
$var wire 1 > _104_ $end
$var wire 1 ? _103_ $end
$var wire 1 @ _102_ $end
$var wire 1 A _101_ $end
$var wire 1 B _100_ $end
$var wire 1 C _099_ $end
$var wire 1 D _098_ $end
$var wire 1 E _097_ $end
$var wire 1 F _096_ $end
$var wire 1 G _095_ $end
$var wire 1 H _094_ $end
$var wire 1 I _093_ $end
$var wire 1 J _092_ $end
$var wire 1 K _091_ $end
$var wire 1 L _090_ $end
$var wire 1 M _089_ $end
$var wire 1 N _088_ $end
$var wire 1 O _087_ $end
$var wire 1 P _086_ $end
$var wire 1 Q _085_ $end
$var wire 1 R _084_ $end
$var wire 1 S _083_ $end
$var wire 1 T _082_ $end
$var wire 1 U _081_ $end
$var wire 1 V _080_ $end
$var wire 1 W _079_ $end
$var wire 1 X _078_ $end
$var wire 1 Y _077_ $end
$var wire 1 Z _076_ $end
$var wire 1 [ _075_ $end
$var wire 1 \ _074_ $end
$var wire 1 ] _073_ $end
$var wire 1 ^ _072_ $end
$var wire 1 _ _071_ $end
$var wire 1 ` _070_ $end
$var wire 1 a _069_ $end
$var wire 1 b _068_ $end
$var wire 1 c _067_ $end
$var wire 1 d _066_ $end
$var wire 1 e _065_ $end
$var wire 1 f _064_ $end
$var wire 1 g _063_ $end
$var wire 1 h _062_ $end
$var wire 1 i _061_ $end
$var wire 1 j _060_ $end
$var wire 1 k _059_ $end
$var wire 1 l _058_ $end
$var wire 1 m _057_ $end
$var wire 1 n _056_ $end
$var wire 1 o _055_ $end
$var wire 1 p _054_ $end
$var wire 1 q _053_ $end
$var wire 1 r _052_ $end
$var wire 1 s _051_ $end
$var wire 1 t _050_ $end
$var wire 1 u _049_ $end
$var wire 1 v _048_ $end
$var wire 1 w _047_ $end
$var wire 1 x _046_ $end
$var wire 1 y _045_ $end
$var wire 1 z _044_ $end
$var wire 1 { _043_ $end
$var wire 1 | _042_ $end
$var wire 1 } _041_ $end
$var wire 1 ~ _040_ $end
$var wire 1 !" _039_ $end
$var wire 1 "" _038_ $end
$var wire 1 #" _037_ $end
$var wire 1 $" _036_ $end
$var wire 1 %" _035_ $end
$var wire 1 &" _034_ $end
$var wire 1 '" _033_ $end
$var wire 1 (" _032_ $end
$var wire 1 )" _031_ $end
$var wire 1 *" _030_ $end
$var wire 1 +" _029_ $end
$var wire 1 ," _028_ $end
$var wire 1 -" _027_ $end
$var wire 1 ." _026_ $end
$var wire 1 /" _025_ $end
$var wire 1 0" _024_ $end
$var wire 1 1" _023_ $end
$var wire 1 2" _022_ $end
$var wire 1 3" _021_ $end
$var wire 1 4" _020_ $end
$var wire 1 5" _019_ $end
$var wire 1 6" _018_ $end
$var wire 1 7" _017_ $end
$var wire 1 8" _016_ $end
$var wire 1 9" _015_ $end
$var wire 1 :" _014_ $end
$var wire 1 ;" _013_ $end
$var wire 1 <" _012_ $end
$var wire 1 =" _011_ $end
$var wire 1 >" _010_ $end
$var wire 1 ?" _009_ $end
$var wire 1 @" _008_ $end
$var wire 1 A" _007_ $end
$var wire 1 B" _006_ $end
$var wire 1 C" _005_ $end
$var wire 1 D" _004_ $end
$var wire 1 E" _003_ $end
$var wire 1 F" _002_ $end
$var wire 2 G" _001_ [1:0] $end
$var wire 8 H" _000_ [7:0] $end
$scope module _108_ $end
$var wire 1 I" A $end
$var wire 1 a Y $end
$upscope $end
$scope module _109_ $end
$var wire 1 J" A $end
$var wire 1 ` Y $end
$upscope $end
$scope module _110_ $end
$var wire 1 K" A $end
$var wire 1 _ Y $end
$upscope $end
$scope module _111_ $end
$var wire 1 L" A $end
$var wire 1 ^ Y $end
$upscope $end
$scope module _112_ $end
$var wire 1 M" A $end
$var wire 1 ] Y $end
$upscope $end
$scope module _113_ $end
$var wire 1 N" A $end
$var wire 1 \ Y $end
$upscope $end
$scope module _114_ $end
$var wire 1 O" A $end
$var wire 1 [ Y $end
$upscope $end
$scope module _115_ $end
$var wire 1 P" A $end
$var wire 1 Z Y $end
$upscope $end
$scope module _116_ $end
$var wire 1 Q" A $end
$var wire 1 Y Y $end
$upscope $end
$scope module _117_ $end
$var wire 1 R" A $end
$var wire 1 X Y $end
$upscope $end
$scope module _118_ $end
$var wire 1 S" A $end
$var wire 1 W Y $end
$upscope $end
$scope module _119_ $end
$var wire 1 T" A $end
$var wire 1 V Y $end
$upscope $end
$scope module _120_ $end
$var wire 1 U" A $end
$var wire 1 U Y $end
$upscope $end
$scope module _121_ $end
$var wire 1 V" A $end
$var wire 1 T Y $end
$upscope $end
$scope module _122_ $end
$var wire 1 W" A $end
$var wire 1 S Y $end
$upscope $end
$scope module _123_ $end
$var wire 1 * A $end
$var wire 1 + B $end
$var wire 1 R Y $end
$upscope $end
$scope module _124_ $end
$var wire 1 R A $end
$var wire 1 F" Y $end
$upscope $end
$scope module _125_ $end
$var wire 1 X" A $end
$var wire 1 R B $end
$var wire 1 Y" Y $end
$upscope $end
$scope module _126_ $end
$var wire 1 Z" A $end
$var wire 1 [" B $end
$var wire 1 Q Y $end
$upscope $end
$scope module _127_ $end
$var wire 1 Q A $end
$var wire 1 P Y $end
$upscope $end
$scope module _128_ $end
$var wire 1 \" A $end
$var wire 1 ]" B $end
$var wire 1 O Y $end
$upscope $end
$scope module _129_ $end
$var wire 1 R A $end
$var wire 1 O B $end
$var wire 1 N Y $end
$upscope $end
$scope module _130_ $end
$var wire 1 N A $end
$var wire 1 M Y $end
$upscope $end
$scope module _131_ $end
$var wire 1 Q A $end
$var wire 1 N B $end
$var wire 1 L Y $end
$upscope $end
$scope module _132_ $end
$var wire 1 L A $end
$var wire 1 ^" Y $end
$upscope $end
$scope module _133_ $end
$var wire 1 _" A $end
$var wire 1 P B $end
$var wire 1 K Y $end
$upscope $end
$scope module _134_ $end
$var wire 1 `" A $end
$var wire 1 ` B $end
$var wire 1 J Y $end
$upscope $end
$scope module _135_ $end
$var wire 1 a A $end
$var wire 1 a" B $end
$var wire 1 I Y $end
$upscope $end
$scope module _136_ $end
$var wire 1 \ A $end
$var wire 1 I B $end
$var wire 1 H Y $end
$upscope $end
$scope module _137_ $end
$var wire 1 b" A $end
$var wire 1 ` B $end
$var wire 1 G Y $end
$upscope $end
$scope module _138_ $end
$var wire 1 c" A $end
$var wire 1 d" B $end
$var wire 1 F Y $end
$upscope $end
$scope module _139_ $end
$var wire 1 e" A $end
$var wire 1 F B $end
$var wire 1 E Y $end
$upscope $end
$scope module _140_ $end
$var wire 1 H A $end
$var wire 1 E B $end
$var wire 1 D Y $end
$upscope $end
$scope module _141_ $end
$var wire 1 K A $end
$var wire 1 D B $end
$var wire 1 C Y $end
$upscope $end
$scope module _142_ $end
$var wire 1 f" A $end
$var wire 1 G B $end
$var wire 1 B Y $end
$upscope $end
$scope module _143_ $end
$var wire 1 M A $end
$var wire 1 B B $end
$var wire 1 A Y $end
$upscope $end
$scope module _144_ $end
$var wire 1 C A $end
$var wire 1 A B $end
$var wire 1 @ Y $end
$upscope $end
$scope module _145_ $end
$var wire 1 g" A $end
$var wire 1 O B $end
$var wire 1 ? Y $end
$upscope $end
$scope module _146_ $end
$var wire 1 F" A $end
$var wire 1 ? B $end
$var wire 1 > Y $end
$upscope $end
$scope module _147_ $end
$var wire 1 _ A $end
$var wire 1 R B $end
$var wire 1 = Y $end
$upscope $end
$scope module _148_ $end
$var wire 1 > A $end
$var wire 1 = B $end
$var wire 1 < Y $end
$upscope $end
$scope module _149_ $end
$var wire 1 @ A $end
$var wire 1 < B $end
$var wire 1 h" Y $end
$upscope $end
$scope module _150_ $end
$var wire 1 i" A $end
$var wire 1 R B $end
$var wire 1 ; Y $end
$upscope $end
$scope module _151_ $end
$var wire 1 j" A $end
$var wire 1 J B $end
$var wire 1 E" Y $end
$upscope $end
$scope module _152_ $end
$var wire 1 ^ A $end
$var wire 1 Q B $end
$var wire 1 D" Y $end
$upscope $end
$scope module _153_ $end
$var wire 1 ` A $end
$var wire 1 D" B $end
$var wire 1 C" Y $end
$upscope $end
$scope module _154_ $end
$var wire 1 E" A $end
$var wire 1 C" B $end
$var wire 1 B" Y $end
$upscope $end
$scope module _155_ $end
$var wire 1 Y A $end
$var wire 1 O B $end
$var wire 1 A" Y $end
$upscope $end
$scope module _156_ $end
$var wire 1 F" A $end
$var wire 1 A" B $end
$var wire 1 @" Y $end
$upscope $end
$scope module _157_ $end
$var wire 1 k" A $end
$var wire 1 G B $end
$var wire 1 ?" Y $end
$upscope $end
$scope module _158_ $end
$var wire 1 @" A $end
$var wire 1 ?" B $end
$var wire 1 >" Y $end
$upscope $end
$scope module _159_ $end
$var wire 1 B" A $end
$var wire 1 >" B $end
$var wire 1 =" Y $end
$upscope $end
$scope module _160_ $end
$var wire 1 ; A $end
$var wire 1 =" B $end
$var wire 1 l" Y $end
$upscope $end
$scope module _161_ $end
$var wire 1 m" A $end
$var wire 1 R B $end
$var wire 1 <" Y $end
$upscope $end
$scope module _162_ $end
$var wire 1 n" A $end
$var wire 1 J B $end
$var wire 1 ;" Y $end
$upscope $end
$scope module _163_ $end
$var wire 1 ] A $end
$var wire 1 Q B $end
$var wire 1 :" Y $end
$upscope $end
$scope module _164_ $end
$var wire 1 ` A $end
$var wire 1 :" B $end
$var wire 1 9" Y $end
$upscope $end
$scope module _165_ $end
$var wire 1 ;" A $end
$var wire 1 9" B $end
$var wire 1 8" Y $end
$upscope $end
$scope module _166_ $end
$var wire 1 X A $end
$var wire 1 O B $end
$var wire 1 7" Y $end
$upscope $end
$scope module _167_ $end
$var wire 1 F" A $end
$var wire 1 7" B $end
$var wire 1 6" Y $end
$upscope $end
$scope module _168_ $end
$var wire 1 o" A $end
$var wire 1 G B $end
$var wire 1 5" Y $end
$upscope $end
$scope module _169_ $end
$var wire 1 6" A $end
$var wire 1 5" B $end
$var wire 1 4" Y $end
$upscope $end
$scope module _170_ $end
$var wire 1 8" A $end
$var wire 1 4" B $end
$var wire 1 3" Y $end
$upscope $end
$scope module _171_ $end
$var wire 1 <" A $end
$var wire 1 3" B $end
$var wire 1 p" Y $end
$upscope $end
$scope module _172_ $end
$var wire 1 q" A $end
$var wire 1 R B $end
$var wire 1 2" Y $end
$upscope $end
$scope module _173_ $end
$var wire 1 r" A $end
$var wire 1 P B $end
$var wire 1 1" Y $end
$upscope $end
$scope module _174_ $end
$var wire 1 [ A $end
$var wire 1 I B $end
$var wire 1 0" Y $end
$upscope $end
$scope module _175_ $end
$var wire 1 ` A $end
$var wire 1 0" B $end
$var wire 1 /" Y $end
$upscope $end
$scope module _176_ $end
$var wire 1 1" A $end
$var wire 1 /" B $end
$var wire 1 ." Y $end
$upscope $end
$scope module _177_ $end
$var wire 1 W A $end
$var wire 1 O B $end
$var wire 1 -" Y $end
$upscope $end
$scope module _178_ $end
$var wire 1 F" A $end
$var wire 1 -" B $end
$var wire 1 ," Y $end
$upscope $end
$scope module _179_ $end
$var wire 1 s" A $end
$var wire 1 G B $end
$var wire 1 +" Y $end
$upscope $end
$scope module _180_ $end
$var wire 1 ," A $end
$var wire 1 +" B $end
$var wire 1 *" Y $end
$upscope $end
$scope module _181_ $end
$var wire 1 ." A $end
$var wire 1 *" B $end
$var wire 1 )" Y $end
$upscope $end
$scope module _182_ $end
$var wire 1 2" A $end
$var wire 1 )" B $end
$var wire 1 t" Y $end
$upscope $end
$scope module _183_ $end
$var wire 1 u" A $end
$var wire 1 R B $end
$var wire 1 (" Y $end
$upscope $end
$scope module _184_ $end
$var wire 1 v" A $end
$var wire 1 P B $end
$var wire 1 '" Y $end
$upscope $end
$scope module _185_ $end
$var wire 1 Z A $end
$var wire 1 I B $end
$var wire 1 &" Y $end
$upscope $end
$scope module _186_ $end
$var wire 1 ` A $end
$var wire 1 &" B $end
$var wire 1 %" Y $end
$upscope $end
$scope module _187_ $end
$var wire 1 '" A $end
$var wire 1 %" B $end
$var wire 1 $" Y $end
$upscope $end
$scope module _188_ $end
$var wire 1 V A $end
$var wire 1 O B $end
$var wire 1 #" Y $end
$upscope $end
$scope module _189_ $end
$var wire 1 F" A $end
$var wire 1 #" B $end
$var wire 1 "" Y $end
$upscope $end
$scope module _190_ $end
$var wire 1 w" A $end
$var wire 1 G B $end
$var wire 1 !" Y $end
$upscope $end
$scope module _191_ $end
$var wire 1 "" A $end
$var wire 1 !" B $end
$var wire 1 ~ Y $end
$upscope $end
$scope module _192_ $end
$var wire 1 $" A $end
$var wire 1 ~ B $end
$var wire 1 } Y $end
$upscope $end
$scope module _193_ $end
$var wire 1 (" A $end
$var wire 1 } B $end
$var wire 1 x" Y $end
$upscope $end
$scope module _194_ $end
$var wire 1 y" A $end
$var wire 1 I B $end
$var wire 1 | Y $end
$upscope $end
$scope module _195_ $end
$var wire 1 z" A $end
$var wire 1 Q B $end
$var wire 1 { Y $end
$upscope $end
$scope module _196_ $end
$var wire 1 | A $end
$var wire 1 { B $end
$var wire 1 z Y $end
$upscope $end
$scope module _197_ $end
$var wire 1 {" A $end
$var wire 1 G B $end
$var wire 1 y Y $end
$upscope $end
$scope module _198_ $end
$var wire 1 |" A $end
$var wire 1 R B $end
$var wire 1 x Y $end
$upscope $end
$scope module _199_ $end
$var wire 1 U A $end
$var wire 1 R B $end
$var wire 1 w Y $end
$upscope $end
$scope module _200_ $end
$var wire 1 N A $end
$var wire 1 w B $end
$var wire 1 v Y $end
$upscope $end
$scope module _201_ $end
$var wire 1 y A $end
$var wire 1 v B $end
$var wire 1 u Y $end
$upscope $end
$scope module _202_ $end
$var wire 1 z A $end
$var wire 1 u B $end
$var wire 1 t Y $end
$upscope $end
$scope module _203_ $end
$var wire 1 x A $end
$var wire 1 t B $end
$var wire 1 }" Y $end
$upscope $end
$scope module _204_ $end
$var wire 1 ~" A $end
$var wire 1 I B $end
$var wire 1 s Y $end
$upscope $end
$scope module _205_ $end
$var wire 1 !# A $end
$var wire 1 Q B $end
$var wire 1 r Y $end
$upscope $end
$scope module _206_ $end
$var wire 1 s A $end
$var wire 1 r B $end
$var wire 1 q Y $end
$upscope $end
$scope module _207_ $end
$var wire 1 "# A $end
$var wire 1 G B $end
$var wire 1 p Y $end
$upscope $end
$scope module _208_ $end
$var wire 1 ## A $end
$var wire 1 R B $end
$var wire 1 o Y $end
$upscope $end
$scope module _209_ $end
$var wire 1 T A $end
$var wire 1 R B $end
$var wire 1 n Y $end
$upscope $end
$scope module _210_ $end
$var wire 1 N A $end
$var wire 1 n B $end
$var wire 1 m Y $end
$upscope $end
$scope module _211_ $end
$var wire 1 p A $end
$var wire 1 m B $end
$var wire 1 l Y $end
$upscope $end
$scope module _212_ $end
$var wire 1 q A $end
$var wire 1 l B $end
$var wire 1 k Y $end
$upscope $end
$scope module _213_ $end
$var wire 1 o A $end
$var wire 1 k B $end
$var wire 1 $# Y $end
$upscope $end
$scope module _214_ $end
$var wire 1 %# A $end
$var wire 1 I B $end
$var wire 1 j Y $end
$upscope $end
$scope module _215_ $end
$var wire 1 &# A $end
$var wire 1 Q B $end
$var wire 1 i Y $end
$upscope $end
$scope module _216_ $end
$var wire 1 j A $end
$var wire 1 i B $end
$var wire 1 h Y $end
$upscope $end
$scope module _217_ $end
$var wire 1 '# A $end
$var wire 1 G B $end
$var wire 1 g Y $end
$upscope $end
$scope module _218_ $end
$var wire 1 (# A $end
$var wire 1 R B $end
$var wire 1 f Y $end
$upscope $end
$scope module _219_ $end
$var wire 1 S A $end
$var wire 1 R B $end
$var wire 1 e Y $end
$upscope $end
$scope module _220_ $end
$var wire 1 N A $end
$var wire 1 e B $end
$var wire 1 d Y $end
$upscope $end
$scope module _221_ $end
$var wire 1 g A $end
$var wire 1 d B $end
$var wire 1 c Y $end
$upscope $end
$scope module _222_ $end
$var wire 1 h A $end
$var wire 1 c B $end
$var wire 1 b Y $end
$upscope $end
$scope module _223_ $end
$var wire 1 f A $end
$var wire 1 b B $end
$var wire 1 )# Y $end
$upscope $end
$scope module _224_ $end
$var wire 1 0 C $end
$var wire 1 *# D $end
$var reg 1 +# Q $end
$upscope $end
$scope module _225_ $end
$var wire 1 0 C $end
$var wire 1 ,# D $end
$var reg 1 -# Q $end
$upscope $end
$scope module _226_ $end
$var wire 1 0 C $end
$var wire 1 .# D $end
$var reg 1 /# Q $end
$upscope $end
$scope module _227_ $end
$var wire 1 0 C $end
$var wire 1 0# D $end
$var reg 1 1# Q $end
$upscope $end
$scope module _228_ $end
$var wire 1 0 C $end
$var wire 1 2# D $end
$var reg 1 3# Q $end
$upscope $end
$scope module _229_ $end
$var wire 1 0 C $end
$var wire 1 4# D $end
$var reg 1 5# Q $end
$upscope $end
$scope module _230_ $end
$var wire 1 0 C $end
$var wire 1 6# D $end
$var reg 1 7# Q $end
$upscope $end
$scope module _231_ $end
$var wire 1 0 C $end
$var wire 1 8# D $end
$var reg 1 9# Q $end
$upscope $end
$scope module _232_ $end
$var wire 1 0 C $end
$var wire 1 F" D $end
$var reg 1 ( Q $end
$upscope $end
$scope module _233_ $end
$var wire 1 0 C $end
$var wire 1 :# D $end
$var reg 1 ;# Q $end
$upscope $end
$scope module _234_ $end
$var wire 1 0 C $end
$var wire 1 <# D $end
$var reg 1 =# Q $end
$upscope $end
$upscope $end
$upscope $end
$enddefinitions $end
#0
$dumpvars
x=#
0<#
x;#
0:#
x9#
x8#
x7#
x6#
x5#
x4#
x3#
x2#
x1#
x0#
x/#
x.#
x-#
x,#
x+#
x*#
x)#
x(#
x'#
x&#
x%#
x$#
x##
x"#
x!#
x~"
x}"
x|"
x{"
xz"
xy"
xx"
xw"
xv"
xu"
xt"
xs"
xr"
xq"
xp"
xo"
xn"
xm"
xl"
xk"
xj"
xi"
xh"
xg"
xf"
xe"
xd"
xc"
xb"
xa"
x`"
x_"
0^"
x]"
x\"
x["
xZ"
0Y"
xX"
xW"
xV"
xU"
xT"
xS"
xR"
xQ"
xP"
xO"
xN"
xM"
xL"
xK"
xJ"
xI"
bx H"
b0 G"
0F"
xE"
xD"
xC"
xB"
xA"
1@"
x?"
0>"
1="
x<"
x;"
x:"
x9"
x8"
x7"
16"
x5"
04"
13"
x2"
x1"
x0"
x/"
x."
x-"
1,"
x+"
0*"
1)"
x("
x'"
x&"
x%"
x$"
x#"
1""
x!"
0~
1}
x|
x{
xz
xy
xx
0w
1v
0u
1t
xs
xr
xq
xp
xo
0n
1m
0l
1k
xj
xi
xh
xg
xf
0e
1d
0c
1b
xa
x`
x_
x^
x]
x\
x[
xZ
xY
xX
xW
xV
xU
xT
xS
1R
xQ
xP
xO
0N
1M
1L
xK
xJ
xI
xH
xG
xF
xE
xD
xC
xB
0A
1@
x?
1>
x=
x<
x;
bx :
bx 9
bx 8
bx 7
bx 6
bx 5
b0 4
bx 3
bx 2
01
00
0/
bx .
bx -
bx ,
0+
0*
x)
x(
x'
z&
z%
z$
z#
z"
z!
$end
#10000000
1z
1q
1h
1K
11"
1'"
1B"
18"
1."
1$"
0B
0?"
05"
0+"
0!"
0y
0p
0g
1E"
1;"
0H
00"
0&"
0|
0s
0j
0D"
0:"
0{
0r
0i
0P
0C"
09"
0/"
0%"
1G
0J
1I
1O
1Q
1a
1`
0c"
0b"
0`"
0\"
0Z"
0X"
0I"
0e"
0a"
0]"
0["
0J"
0)
0(
0;#
b0 9
0=#
10
#20000000
00
11
#30000000
10
#40000000
00
01
1/
#50000000
10
#60000000
00
11
#70000000
10
#80000000
00
01
0/
#90000000
10
#100000000
00
11
#110000000
10
#120000000
1A"
17"
1-"
1#"
0?
0^
1]
0\
0[
0Z
0Y
0X
0W
0V
0U
0T
0S
1L"
0M"
1N"
1O"
1P"
1Q"
1R"
1S"
1T"
1U"
1V"
1W"
0_"
0f"
1g"
1j"
1k"
0n"
0o"
0r"
1s"
0v"
0w"
1y"
1z"
1{"
0~"
0!#
0"#
1%#
0&#
1'#
b11111111101010101011101100100010 .
b11111111101010101011101100100010 2
b11111111101010101011101100100010 7
b11111111101010101011101100100010 8
1+
00
01
1/
#130000000
10
#140000000
00
11
#150000000
10
#160000000
00
01
0/
#170000000
10
#180000000
00
11
#190000000
10
#200000000
0A"
1^
1\
1[
1Z
1Y
0L"
0N"
0O"
0P"
0Q"
1f"
0j"
0k"
1n"
1o"
1r"
0s"
1w"
0y"
0z"
0{"
1~"
1"#
0%#
1&#
0'#
b11111101010101010100010010001000 .
b11111101010101010100010010001000 2
b11111101010101010100010010001000 7
b11111101010101010100010010001000 8
00
01
1/
#210000000
10
#220000000
00
11
#230000000
10
#240000000
00
01
0/
#250000000
10
#260000000
00
11
#270000000
10
#280000000
0k
0b
03"
0)"
1}
0*#
0h"
1l
1c
14"
1*"
0~
0,#
1.#
10#
02#
04#
16#
18#
1<
0l"
1p"
1t"
0x"
0}"
1$#
0m
b11001100 H"
1)#
0d
0>
06"
0,"
1""
1:#
0#"
b1 G"
1Y"
1=
1;
1<"
12"
1("
1x
1o
1n
1f
1e
1?
1F"
0^
0]
0[
1V
1U
0R
1L"
1M"
1O"
0T"
0U"
1_"
0g"
1j"
1k"
0n"
0o"
1s"
1v"
1y"
1z"
1{"
0~"
1!#
0"#
1%#
1'#
b11001100101110111010101011111111 .
b11001100101110111010101011111111 2
b11001100101110111010101011111111 7
b11001100101110111010101011111111 8
1*
00
01
1/
#290000000
14#
1,#
12#
1*#
1}"
1l"
1x"
0.#
06#
1h"
0p"
b10111011 H"
0$#
0t
0="
0}
0@
1C
13"
1k
1<#
1u
1>"
1~
1A
1^"
0D
04"
0l
0L
0v
0@"
0""
0M
1E
15"
1p
1N
1A"
1#"
0:#
0F
0G
0O
b10 G"
0Y"
1_
0a
0d"
0K"
0i"
1m"
1q"
0u"
0|"
1##
1(#
1c"
1b"
1`"
1\"
1Z"
1X"
1I"
b1 4
1)
b11001100 -
b11001100 3
b11001100 5
0+#
0-#
1/#
11#
03#
05#
17#
b11001100 ,
b11001100 6
b11001100 :
19#
1(
b1 9
1;#
10
#300000000
00
11
#310000000
0*#
0h"
1,#
10#
02#
1l"
1t"
b10101010 H"
0x"
1@
0="
0)"
1}
0C
0q
14"
1l
0E"
1B"
08"
1."
0$"
1D
10"
1s
05"
0p
1J
1C"
19"
0/"
1%"
1:#
0E
0I
1G
b11 G"
1Y"
0`
1a
0_
1e"
1a"
1]"
1["
1J"
0c"
0b"
0`"
0\"
0Z"
0X"
0I"
0##
1|"
1u"
0m"
1i"
1d"
1K"
1=#
b10 9
0;#
07#
15#
13#
0/#
1-#
b10111011 ,
b10111011 6
b10111011 :
1+#
b10 4
b10111011 -
b10111011 3
b10111011 5
10
#320000000
00
01
0/
#330000000
1.#
1*#
12#
1p"
16#
1,#
1h"
1x"
1$#
b11111111 H"
1l"
03"
0@
0}
0k
0="
18"
1C
1$"
1/"
1q
1B"
0<#
0C"
09"
0K
01"
0'"
0^"
00"
0s
1E"
1L
1D"
1:"
1P
0:#
1I
0J
0Q
b0 G"
0Y"
1_
0a
0d"
0K"
0u"
1c"
1b"
1`"
1\"
1Z"
1X"
1I"
b11 4
b10101010 -
b10101010 3
b10101010 5
0+#
b10101010 ,
b10101010 6
b10101010 :
03#
b11 9
1;#
10
#340000000
00
11
#350000000
04#
0,#
02#
0*#
0}"
0l"
0x"
b11001100 H"
0h"
1t
1="
1}
1@
0u
0>"
0~
0A
1v
1@"
1""
0<#
1M
1K
11"
1'"
0^"
0D
1E"
0N
0A"
0#"
1L
0D"
0:"
0/"
0%"
0P
1:#
1E
0J
1O
1Q
b1 G"
1Y"
1`
1a
0_
0e"
0a"
0]"
0["
0J"
0c"
0b"
0`"
0\"
0Z"
0X"
0I"
1##
1u"
1m"
1d"
1K"
0=#
b0 9
0;#
17#
13#
1/#
b11111111 ,
b11111111 6
b11111111 :
1+#
b0 4
b11111111 -
b11111111 3
b11111111 5
10
#360000000
12#
14#
1x"
1}"
0}
0t
1*#
b11111101 H"
1h"
1~
1u
0<
0""
0v
1>
1#"
1w
0?
1^
1]
1[
0V
0U
0L"
0M"
0O"
1T"
1U"
0_"
1g"
0j"
0k"
1n"
1o"
0s"
0v"
0y"
0z"
0{"
1~"
0!#
1"#
0%#
0'#
b11111101010101010100010010001000 .
b11111101010101010100010010001000 2
b11111101010101010100010010001000 7
b11111101010101010100010010001000 8
00
01
1/
#370000000
00#
04#
08#
1*#
0t"
0}"
0)#
b1010101 H"
1h"
0@
1)"
1t
1b
1<#
1<
1A
1^"
0*"
0u
0c
0L
0>
0@"
0M
1?"
1+"
1y
1g
1N
1?
1A"
0:#
0G
0O
b10 G"
0Y"
0a
0i"
1c"
1b"
1`"
1\"
1Z"
1X"
1I"
b1 4
b11111101 -
b11111101 3
b11111101 5
b11111101 ,
b11111101 6
b11111101 :
0-#
b1 9
1;#
10
#380000000
00
11
#390000000
0*#
0h"
1.#
02#
1p"
b1000100 H"
0x"
1@
03"
1}
0C
0z
0h
1>"
1*"
1u
1c
0;"
0B"
18"
0."
0$"
1D
1|
1j
0?"
0+"
0y
0g
1J
1C"
19"
1/"
1%"
1:#
0E
0I
1G
b11 G"
1Y"
0`
1a
1e"
1a"
1]"
1["
1J"
0c"
0b"
0`"
0\"
0Z"
0X"
0I"
0(#
0|"
0q"
1=#
b10 9
0;#
09#
05#
b1010101 ,
b1010101 6
b1010101 :
01#
b10 4
b1010101 -
b1010101 3
b1010101 5
10
#400000000
00
01
0/
#410000000
10#
18#
0.#
1t"
06#
1)#
0p"
b10001000 H"
0$#
0)"
0b
13"
1k
1."
1h
08"
0<#
0q
01"
0^"
0|
0j
1;"
1L
1{
1r
1P
0:#
1I
0J
0Q
b0 G"
0Y"
1_
0a
0d"
0K"
0u"
1c"
1b"
1`"
1\"
1Z"
1X"
1I"
b11 4
b1000100 -
b1000100 3
b1000100 5
0+#
b1000100 ,
b1000100 6
b1000100 :
03#
b11 9
1;#
10
#420000000
00
11
#430000000
1*#
14#
16#
0,#
1.#
12#
1h"
1}"
1$#
0l"
1p"
b11111101 H"
1x"
0<
0>"
0t
0k
1="
03"
0}
0A
0C
1>
1@"
0<#
1z
1q
1B"
18"
1$"
1M
11"
0^"
1D
1;"
0N
0?
0A"
1L
0{
0r
0C"
09"
0/"
0%"
0P
1:#
0E
1F
0J
1O
1Q
b1 G"
1Y"
1`
1a
0e"
0a"
0]"
0["
0J"
0c"
0b"
0`"
0\"
0Z"
0X"
0I"
1(#
0##
1q"
0m"
0=#
b0 9
0;#
19#
07#
11#
b10001000 ,
b10001000 6
b10001000 :
0/#
b0 4
b10001000 -
b10001000 3
b10001000 5
10
#440000000
1,#
0.#
00#
04#
06#
08#
1l"
0p"
0t"
0}"
0$#
0)#
0="
13"
1)"
1t
1k
1b
0*#
b10010 H"
0h"
1>"
04"
0*"
0u
0l
0c
1<
0@"
16"
1,"
1v
1m
1d
0>
1A"
07"
0-"
0w
0n
0e
1?
0Z
0Y
1X
1W
1U
1T
1S
1P"
1Q"
0R"
0S"
0U"
0V"
0W"
0f"
0g"
1j"
1v"
1z"
1{"
1!#
0"#
0&#
b10010001101000101011001111000 .
b10010001101000101011001111000 2
b10010001101000101011001111000 7
b10010001101000101011001111000 8
00
01
1/
#450000000
14#
1.#
1}"
1p"
0,#
b110100 H"
0l"
0t
03"
1C
1="
1<#
1u
14"
1^"
0D
0>"
0L
0v
0m
0d
06"
0,"
0M
1E
1B
1?"
1+"
1p
1g
1N
17"
1-"
0:#
0F
0G
0O
b10 G"
0Y"
0a
1i"
0q"
1u"
0(#
1c"
1b"
1`"
1\"
1Z"
1X"
1I"
b1 4
b10010 -
b10010 3
b10010 5
1-#
01#
13#
b10010 ,
b10010 6
b10010 :
09#
b1 9
1;#
10
#460000000
00
11
