demux_32_8_v2/demux_32_8.vcd
$date
	Tue Sep 22 16:46:21 2020
$end
$version
	Icarus Verilog
$end
$timescale
	100ps
$end
$scope module BUF $end
$var wire 1 ! A $end
$var wire 1 " Y $end
$upscope $end
$scope module DFFSR $end
$var wire 1 # C $end
$var wire 1 $ D $end
$var wire 1 % R $end
$var wire 1 & S $end
$var reg 1 ' Q $end
$upscope $end
$scope module banco_demux_32_8 $end
$var wire 1 ( valid_out_estructural $end
$var wire 1 ) valid_out $end
$var wire 1 * valid $end
$var wire 1 + reset $end
$var wire 8 , data_out_estructural [7:0] $end
$var wire 8 - data_out [7:0] $end
$var wire 32 . data_in [31:0] $end
$var wire 1 / clk_f $end
$var wire 1 0 clk_4f $end
$var wire 1 1 clk_2f $end
$scope module u_demux_32_8 $end
$var wire 1 * valid $end
$var wire 1 + reset $end
$var wire 32 2 data_in [31:0] $end
$var wire 1 0 clk_4f $end
$var reg 8 3 data_out [7:0] $end
$var reg 2 4 selector [1:0] $end
$var reg 1 ) valid_out $end
$upscope $end
$scope module u_probador_recirc $end
$var wire 8 5 data_out [7:0] $end
$var wire 1 ) valid_out $end
$var wire 1 ( valid_out_estructural $end
$var wire 8 6 data_out_estructural [7:0] $end
$var reg 1 1 clk_2f $end
$var reg 1 0 clk_4f $end
$var reg 1 / clk_f $end
$var reg 32 7 data_in [31:0] $end
$var reg 1 + reset $end
$var reg 1 * valid $end
$upscope $end
$scope module u_sintetizado32a8_cmos $end
$var wire 1 0 clk_4f $end
$var wire 32 8 data_in [31:0] $end
$var wire 1 + reset $end
$var wire 1 * valid $end
$var wire 1 ( valid_out_estructural $end
$var wire 2 9 selector [1:0] $end
$var wire 8 : data_out_estructural [7:0] $end
$var wire 1 ; _113_ $end
$var wire 1 < _112_ $end
$var wire 1 = _111_ $end
$var wire 1 > _110_ $end
$var wire 1 ? _109_ $end
$var wire 1 @ _108_ $end
$var wire 1 A _107_ $end
$var wire 1 B _106_ $end
$var wire 1 C _105_ $end
$var wire 1 D _104_ $end
$var wire 1 E _103_ $end
$var wire 1 F _102_ $end
$var wire 1 G _101_ $end
$var wire 1 H _100_ $end
$var wire 1 I _099_ $end
$var wire 1 J _098_ $end
$var wire 1 K _097_ $end
$var wire 1 L _096_ $end
$var wire 1 M _095_ $end
$var wire 1 N _094_ $end
$var wire 1 O _093_ $end
$var wire 1 P _092_ $end
$var wire 1 Q _091_ $end
$var wire 1 R _090_ $end
$var wire 1 S _089_ $end
$var wire 1 T _088_ $end
$var wire 1 U _087_ $end
$var wire 1 V _086_ $end
$var wire 1 W _085_ $end
$var wire 1 X _084_ $end
$var wire 1 Y _083_ $end
$var wire 1 Z _082_ $end
$var wire 1 [ _081_ $end
$var wire 1 \ _080_ $end
$var wire 1 ] _079_ $end
$var wire 1 ^ _078_ $end
$var wire 1 _ _077_ $end
$var wire 1 ` _076_ $end
$var wire 1 a _075_ $end
$var wire 1 b _074_ $end
$var wire 1 c _073_ $end
$var wire 1 d _072_ $end
$var wire 1 e _071_ $end
$var wire 1 f _070_ $end
$var wire 1 g _069_ $end
$var wire 1 h _068_ $end
$var wire 1 i _067_ $end
$var wire 1 j _066_ $end
$var wire 1 k _065_ $end
$var wire 1 l _064_ $end
$var wire 1 m _063_ $end
$var wire 1 n _062_ $end
$var wire 1 o _061_ $end
$var wire 1 p _060_ $end
$var wire 1 q _059_ $end
$var wire 1 r _058_ $end
$var wire 1 s _057_ $end
$var wire 1 t _056_ $end
$var wire 1 u _055_ $end
$var wire 1 v _054_ $end
$var wire 1 w _053_ $end
$var wire 1 x _052_ $end
$var wire 1 y _051_ $end
$var wire 1 z _050_ $end
$var wire 1 { _049_ $end
$var wire 1 | _048_ $end
$var wire 1 } _047_ $end
$var wire 1 ~ _046_ $end
$var wire 1 !" _045_ $end
$var wire 1 "" _044_ $end
$var wire 1 #" _043_ $end
$var wire 1 $" _042_ $end
$var wire 1 %" _041_ $end
$var wire 1 &" _040_ $end
$var wire 1 '" _039_ $end
$var wire 1 (" _038_ $end
$var wire 1 )" _037_ $end
$var wire 1 *" _036_ $end
$var wire 1 +" _035_ $end
$var wire 1 ," _034_ $end
$var wire 1 -" _033_ $end
$var wire 1 ." _032_ $end
$var wire 1 /" _031_ $end
$var wire 1 0" _030_ $end
$var wire 1 1" _029_ $end
$var wire 1 2" _028_ $end
$var wire 1 3" _027_ $end
$var wire 1 4" _026_ $end
$var wire 1 5" _025_ $end
$var wire 1 6" _024_ $end
$var wire 1 7" _023_ $end
$var wire 1 8" _022_ $end
$var wire 1 9" _021_ $end
$var wire 1 :" _020_ $end
$var wire 1 ;" _019_ $end
$var wire 1 <" _018_ $end
$var wire 1 =" _017_ $end
$var wire 1 >" _016_ $end
$var wire 1 ?" _015_ $end
$var wire 1 @" _014_ $end
$var wire 1 A" _013_ $end
$var wire 1 B" _012_ $end
$var wire 1 C" _011_ $end
$var wire 1 D" _010_ $end
$var wire 1 E" _009_ $end
$var wire 1 F" _008_ $end
$var wire 1 G" _007_ $end
$var wire 1 H" _006_ $end
$var wire 1 I" _005_ $end
$var wire 1 J" _004_ $end
$var wire 1 K" _003_ $end
$var wire 1 L" _002_ $end
$var wire 2 M" _001_ [1:0] $end
$var wire 8 N" _000_ [7:0] $end
$scope module _114_ $end
$var wire 1 O" A $end
$var wire 1 b Y $end
$upscope $end
$scope module _115_ $end
$var wire 1 P" A $end
$var wire 1 a Y $end
$upscope $end
$scope module _116_ $end
$var wire 1 Q" A $end
$var wire 1 ` Y $end
$upscope $end
$scope module _117_ $end
$var wire 1 R" A $end
$var wire 1 _ Y $end
$upscope $end
$scope module _118_ $end
$var wire 1 S" A $end
$var wire 1 ^ Y $end
$upscope $end
$scope module _119_ $end
$var wire 1 T" A $end
$var wire 1 ] Y $end
$upscope $end
$scope module _120_ $end
$var wire 1 U" A $end
$var wire 1 \ Y $end
$upscope $end
$scope module _121_ $end
$var wire 1 V" A $end
$var wire 1 [ Y $end
$upscope $end
$scope module _122_ $end
$var wire 1 W" A $end
$var wire 1 Z Y $end
$upscope $end
$scope module _123_ $end
$var wire 1 X" A $end
$var wire 1 Y Y $end
$upscope $end
$scope module _124_ $end
$var wire 1 Y" A $end
$var wire 1 X Y $end
$upscope $end
$scope module _125_ $end
$var wire 1 Z" A $end
$var wire 1 W Y $end
$upscope $end
$scope module _126_ $end
$var wire 1 [" A $end
$var wire 1 V Y $end
$upscope $end
$scope module _127_ $end
$var wire 1 \" A $end
$var wire 1 U Y $end
$upscope $end
$scope module _128_ $end
$var wire 1 ]" A $end
$var wire 1 T Y $end
$upscope $end
$scope module _129_ $end
$var wire 1 ^" A $end
$var wire 1 S Y $end
$upscope $end
$scope module _130_ $end
$var wire 1 _" A $end
$var wire 1 R Y $end
$upscope $end
$scope module _131_ $end
$var wire 1 `" A $end
$var wire 1 Q Y $end
$upscope $end
$scope module _132_ $end
$var wire 1 * A $end
$var wire 1 + B $end
$var wire 1 P Y $end
$upscope $end
$scope module _133_ $end
$var wire 1 P A $end
$var wire 1 L" Y $end
$upscope $end
$scope module _134_ $end
$var wire 1 a" A $end
$var wire 1 P B $end
$var wire 1 b" Y $end
$upscope $end
$scope module _135_ $end
$var wire 1 c" A $end
$var wire 1 d" B $end
$var wire 1 O Y $end
$upscope $end
$scope module _136_ $end
$var wire 1 e" A $end
$var wire 1 f" B $end
$var wire 1 N Y $end
$upscope $end
$scope module _137_ $end
$var wire 1 b A $end
$var wire 1 a B $end
$var wire 1 M Y $end
$upscope $end
$scope module _138_ $end
$var wire 1 P A $end
$var wire 1 N B $end
$var wire 1 L Y $end
$upscope $end
$scope module _139_ $end
$var wire 1 L A $end
$var wire 1 K Y $end
$upscope $end
$scope module _140_ $end
$var wire 1 O A $end
$var wire 1 L B $end
$var wire 1 J Y $end
$upscope $end
$scope module _141_ $end
$var wire 1 J A $end
$var wire 1 g" Y $end
$upscope $end
$scope module _142_ $end
$var wire 1 h" A $end
$var wire 1 a B $end
$var wire 1 I Y $end
$upscope $end
$scope module _143_ $end
$var wire 1 b A $end
$var wire 1 i" B $end
$var wire 1 H Y $end
$upscope $end
$scope module _144_ $end
$var wire 1 j" A $end
$var wire 1 I B $end
$var wire 1 G Y $end
$upscope $end
$scope module _145_ $end
$var wire 1 k" A $end
$var wire 1 a B $end
$var wire 1 F Y $end
$upscope $end
$scope module _146_ $end
$var wire 1 l" A $end
$var wire 1 m" B $end
$var wire 1 E Y $end
$upscope $end
$scope module _147_ $end
$var wire 1 n" A $end
$var wire 1 E B $end
$var wire 1 D Y $end
$upscope $end
$scope module _148_ $end
$var wire 1 ^ A $end
$var wire 1 O B $end
$var wire 1 C Y $end
$upscope $end
$scope module _149_ $end
$var wire 1 D A $end
$var wire 1 C B $end
$var wire 1 B Y $end
$upscope $end
$scope module _150_ $end
$var wire 1 G A $end
$var wire 1 B B $end
$var wire 1 A Y $end
$upscope $end
$scope module _151_ $end
$var wire 1 o" A $end
$var wire 1 F B $end
$var wire 1 @ Y $end
$upscope $end
$scope module _152_ $end
$var wire 1 K A $end
$var wire 1 @ B $end
$var wire 1 ? Y $end
$upscope $end
$scope module _153_ $end
$var wire 1 A A $end
$var wire 1 ? B $end
$var wire 1 > Y $end
$upscope $end
$scope module _154_ $end
$var wire 1 p" A $end
$var wire 1 N B $end
$var wire 1 = Y $end
$upscope $end
$scope module _155_ $end
$var wire 1 L" A $end
$var wire 1 = B $end
$var wire 1 < Y $end
$upscope $end
$scope module _156_ $end
$var wire 1 ] A $end
$var wire 1 P B $end
$var wire 1 ; Y $end
$upscope $end
$scope module _157_ $end
$var wire 1 < A $end
$var wire 1 ; B $end
$var wire 1 K" Y $end
$upscope $end
$scope module _158_ $end
$var wire 1 > A $end
$var wire 1 K" B $end
$var wire 1 q" Y $end
$upscope $end
$scope module _159_ $end
$var wire 1 r" A $end
$var wire 1 P B $end
$var wire 1 J" Y $end
$upscope $end
$scope module _160_ $end
$var wire 1 s" A $end
$var wire 1 I B $end
$var wire 1 I" Y $end
$upscope $end
$scope module _161_ $end
$var wire 1 \ A $end
$var wire 1 O B $end
$var wire 1 H" Y $end
$upscope $end
$scope module _162_ $end
$var wire 1 a A $end
$var wire 1 H" B $end
$var wire 1 G" Y $end
$upscope $end
$scope module _163_ $end
$var wire 1 I" A $end
$var wire 1 G" B $end
$var wire 1 F" Y $end
$upscope $end
$scope module _164_ $end
$var wire 1 T A $end
$var wire 1 N B $end
$var wire 1 E" Y $end
$upscope $end
$scope module _165_ $end
$var wire 1 L" A $end
$var wire 1 E" B $end
$var wire 1 D" Y $end
$upscope $end
$scope module _166_ $end
$var wire 1 t" A $end
$var wire 1 F B $end
$var wire 1 C" Y $end
$upscope $end
$scope module _167_ $end
$var wire 1 D" A $end
$var wire 1 C" B $end
$var wire 1 B" Y $end
$upscope $end
$scope module _168_ $end
$var wire 1 F" A $end
$var wire 1 B" B $end
$var wire 1 A" Y $end
$upscope $end
$scope module _169_ $end
$var wire 1 J" A $end
$var wire 1 A" B $end
$var wire 1 u" Y $end
$upscope $end
$scope module _170_ $end
$var wire 1 v" A $end
$var wire 1 P B $end
$var wire 1 @" Y $end
$upscope $end
$scope module _171_ $end
$var wire 1 w" A $end
$var wire 1 I B $end
$var wire 1 ?" Y $end
$upscope $end
$scope module _172_ $end
$var wire 1 [ A $end
$var wire 1 O B $end
$var wire 1 >" Y $end
$upscope $end
$scope module _173_ $end
$var wire 1 a A $end
$var wire 1 >" B $end
$var wire 1 =" Y $end
$upscope $end
$scope module _174_ $end
$var wire 1 ?" A $end
$var wire 1 =" B $end
$var wire 1 <" Y $end
$upscope $end
$scope module _175_ $end
$var wire 1 S A $end
$var wire 1 N B $end
$var wire 1 ;" Y $end
$upscope $end
$scope module _176_ $end
$var wire 1 L" A $end
$var wire 1 ;" B $end
$var wire 1 :" Y $end
$upscope $end
$scope module _177_ $end
$var wire 1 x" A $end
$var wire 1 F B $end
$var wire 1 9" Y $end
$upscope $end
$scope module _178_ $end
$var wire 1 :" A $end
$var wire 1 9" B $end
$var wire 1 8" Y $end
$upscope $end
$scope module _179_ $end
$var wire 1 <" A $end
$var wire 1 8" B $end
$var wire 1 7" Y $end
$upscope $end
$scope module _180_ $end
$var wire 1 @" A $end
$var wire 1 7" B $end
$var wire 1 y" Y $end
$upscope $end
$scope module _181_ $end
$var wire 1 z" A $end
$var wire 1 H B $end
$var wire 1 6" Y $end
$upscope $end
$scope module _182_ $end
$var wire 1 {" A $end
$var wire 1 O B $end
$var wire 1 5" Y $end
$upscope $end
$scope module _183_ $end
$var wire 1 6" A $end
$var wire 1 5" B $end
$var wire 1 4" Y $end
$upscope $end
$scope module _184_ $end
$var wire 1 |" A $end
$var wire 1 F B $end
$var wire 1 3" Y $end
$upscope $end
$scope module _185_ $end
$var wire 1 }" A $end
$var wire 1 P B $end
$var wire 1 2" Y $end
$upscope $end
$scope module _186_ $end
$var wire 1 R A $end
$var wire 1 P B $end
$var wire 1 1" Y $end
$upscope $end
$scope module _187_ $end
$var wire 1 L A $end
$var wire 1 1" B $end
$var wire 1 0" Y $end
$upscope $end
$scope module _188_ $end
$var wire 1 3" A $end
$var wire 1 0" B $end
$var wire 1 /" Y $end
$upscope $end
$scope module _189_ $end
$var wire 1 4" A $end
$var wire 1 /" B $end
$var wire 1 ." Y $end
$upscope $end
$scope module _190_ $end
$var wire 1 2" A $end
$var wire 1 ." B $end
$var wire 1 ~" Y $end
$upscope $end
$scope module _191_ $end
$var wire 1 !# A $end
$var wire 1 P B $end
$var wire 1 -" Y $end
$upscope $end
$scope module _192_ $end
$var wire 1 Z A $end
$var wire 1 O B $end
$var wire 1 ," Y $end
$upscope $end
$scope module _193_ $end
$var wire 1 V A $end
$var wire 1 H B $end
$var wire 1 +" Y $end
$upscope $end
$scope module _194_ $end
$var wire 1 "# A $end
$var wire 1 M B $end
$var wire 1 *" Y $end
$upscope $end
$scope module _195_ $end
$var wire 1 P A $end
$var wire 1 *" B $end
$var wire 1 )" Y $end
$upscope $end
$scope module _196_ $end
$var wire 1 ## A $end
$var wire 1 ` B $end
$var wire 1 (" Y $end
$upscope $end
$scope module _197_ $end
$var wire 1 a A $end
$var wire 1 (" B $end
$var wire 1 '" Y $end
$upscope $end
$scope module _198_ $end
$var wire 1 ," A $end
$var wire 1 +" B $end
$var wire 1 &" Y $end
$upscope $end
$scope module _199_ $end
$var wire 1 '" A $end
$var wire 1 &" B $end
$var wire 1 %" Y $end
$upscope $end
$scope module _200_ $end
$var wire 1 )" A $end
$var wire 1 %" B $end
$var wire 1 $" Y $end
$upscope $end
$scope module _201_ $end
$var wire 1 -" A $end
$var wire 1 $" B $end
$var wire 1 $# Y $end
$upscope $end
$scope module _202_ $end
$var wire 1 %# A $end
$var wire 1 P B $end
$var wire 1 #" Y $end
$upscope $end
$scope module _203_ $end
$var wire 1 Y A $end
$var wire 1 O B $end
$var wire 1 "" Y $end
$upscope $end
$scope module _204_ $end
$var wire 1 U A $end
$var wire 1 H B $end
$var wire 1 !" Y $end
$upscope $end
$scope module _205_ $end
$var wire 1 &# A $end
$var wire 1 M B $end
$var wire 1 ~ Y $end
$upscope $end
$scope module _206_ $end
$var wire 1 P A $end
$var wire 1 ~ B $end
$var wire 1 } Y $end
$upscope $end
$scope module _207_ $end
$var wire 1 '# A $end
$var wire 1 _ B $end
$var wire 1 | Y $end
$upscope $end
$scope module _208_ $end
$var wire 1 a A $end
$var wire 1 | B $end
$var wire 1 { Y $end
$upscope $end
$scope module _209_ $end
$var wire 1 "" A $end
$var wire 1 !" B $end
$var wire 1 z Y $end
$upscope $end
$scope module _210_ $end
$var wire 1 { A $end
$var wire 1 z B $end
$var wire 1 y Y $end
$upscope $end
$scope module _211_ $end
$var wire 1 } A $end
$var wire 1 y B $end
$var wire 1 x Y $end
$upscope $end
$scope module _212_ $end
$var wire 1 #" A $end
$var wire 1 x B $end
$var wire 1 (# Y $end
$upscope $end
$scope module _213_ $end
$var wire 1 )# A $end
$var wire 1 H B $end
$var wire 1 w Y $end
$upscope $end
$scope module _214_ $end
$var wire 1 *# A $end
$var wire 1 O B $end
$var wire 1 v Y $end
$upscope $end
$scope module _215_ $end
$var wire 1 w A $end
$var wire 1 v B $end
$var wire 1 u Y $end
$upscope $end
$scope module _216_ $end
$var wire 1 +# A $end
$var wire 1 F B $end
$var wire 1 t Y $end
$upscope $end
$scope module _217_ $end
$var wire 1 ,# A $end
$var wire 1 P B $end
$var wire 1 s Y $end
$upscope $end
$scope module _218_ $end
$var wire 1 Q A $end
$var wire 1 P B $end
$var wire 1 r Y $end
$upscope $end
$scope module _219_ $end
$var wire 1 L A $end
$var wire 1 r B $end
$var wire 1 q Y $end
$upscope $end
$scope module _220_ $end
$var wire 1 t A $end
$var wire 1 q B $end
$var wire 1 p Y $end
$upscope $end
$scope module _221_ $end
$var wire 1 u A $end
$var wire 1 p B $end
$var wire 1 o Y $end
$upscope $end
$scope module _222_ $end
$var wire 1 s A $end
$var wire 1 o B $end
$var wire 1 -# Y $end
$upscope $end
$scope module _223_ $end
$var wire 1 .# A $end
$var wire 1 I B $end
$var wire 1 n Y $end
$upscope $end
$scope module _224_ $end
$var wire 1 b A $end
$var wire 1 /# B $end
$var wire 1 m Y $end
$upscope $end
$scope module _225_ $end
$var wire 1 0# A $end
$var wire 1 m B $end
$var wire 1 l Y $end
$upscope $end
$scope module _226_ $end
$var wire 1 X A $end
$var wire 1 O B $end
$var wire 1 k Y $end
$upscope $end
$scope module _227_ $end
$var wire 1 l A $end
$var wire 1 k B $end
$var wire 1 j Y $end
$upscope $end
$scope module _228_ $end
$var wire 1 n A $end
$var wire 1 j B $end
$var wire 1 i Y $end
$upscope $end
$scope module _229_ $end
$var wire 1 W A $end
$var wire 1 L B $end
$var wire 1 h Y $end
$upscope $end
$scope module _230_ $end
$var wire 1 i A $end
$var wire 1 h B $end
$var wire 1 g Y $end
$upscope $end
$scope module _231_ $end
$var wire 1 1# A $end
$var wire 1 P B $end
$var wire 1 f Y $end
$upscope $end
$scope module _232_ $end
$var wire 1 N A $end
$var wire 1 f B $end
$var wire 1 e Y $end
$upscope $end
$scope module _233_ $end
$var wire 1 W A $end
$var wire 1 P B $end
$var wire 1 d Y $end
$upscope $end
$scope module _234_ $end
$var wire 1 e A $end
$var wire 1 d B $end
$var wire 1 c Y $end
$upscope $end
$scope module _235_ $end
$var wire 1 g A $end
$var wire 1 c B $end
$var wire 1 2# Y $end
$upscope $end
$scope module _236_ $end
$var wire 1 0 C $end
$var wire 1 3# D $end
$var reg 1 4# Q $end
$upscope $end
$scope module _237_ $end
$var wire 1 0 C $end
$var wire 1 5# D $end
$var reg 1 6# Q $end
$upscope $end
$scope module _238_ $end
$var wire 1 0 C $end
$var wire 1 7# D $end
$var reg 1 8# Q $end
$upscope $end
$scope module _239_ $end
$var wire 1 0 C $end
$var wire 1 9# D $end
$var reg 1 :# Q $end
$upscope $end
$scope module _240_ $end
$var wire 1 0 C $end
$var wire 1 ;# D $end
$var reg 1 <# Q $end
$upscope $end
$scope module _241_ $end
$var wire 1 0 C $end
$var wire 1 =# D $end
$var reg 1 ># Q $end
$upscope $end
$scope module _242_ $end
$var wire 1 0 C $end
$var wire 1 ?# D $end
$var reg 1 @# Q $end
$upscope $end
$scope module _243_ $end
$var wire 1 0 C $end
$var wire 1 A# D $end
$var reg 1 B# Q $end
$upscope $end
$scope module _244_ $end
$var wire 1 0 C $end
$var wire 1 L" D $end
$var reg 1 ( Q $end
$upscope $end
$scope module _245_ $end
$var wire 1 0 C $end
$var wire 1 C# D $end
$var reg 1 D# Q $end
$upscope $end
$scope module _246_ $end
$var wire 1 0 C $end
$var wire 1 E# D $end
$var reg 1 F# Q $end
$upscope $end
$upscope $end
$upscope $end
$enddefinitions $end
#0
$dumpvars
xF#
0E#
xD#
0C#
xB#
xA#
x@#
x?#
x>#
x=#
x<#
x;#
x:#
x9#
x8#
x7#
x6#
x5#
x4#
x3#
x2#
x1#
x0#
x/#
x.#
x-#
x,#
x+#
x*#
x)#
x(#
x'#
x&#
x%#
x$#
x##
x"#
x!#
x~"
x}"
x|"
x{"
xz"
xy"
xx"
xw"
xv"
xu"
xt"
xs"
xr"
xq"
xp"
xo"
xn"
xm"
xl"
xk"
xj"
xi"
xh"
0g"
xf"
xe"
xd"
xc"
0b"
xa"
x`"
x_"
x^"
x]"
x\"
x["
xZ"
xY"
xX"
xW"
xV"
xU"
xT"
xS"
xR"
xQ"
xP"
xO"
bx N"
b0 M"
0L"
xK"
xJ"
xI"
xH"
xG"
xF"
xE"
1D"
xC"
0B"
1A"
x@"
x?"
x>"
x="
x<"
x;"
1:"
x9"
08"
17"
x6"
x5"
x4"
x3"
x2"
01"
10"
0/"
1."
x-"
x,"
x+"
x*"
0)"
x("
x'"
x&"
x%"
1$"
x#"
x""
x!"
x~
0}
x|
x{
xz
xy
1x
xw
xv
xu
xt
xs
0r
1q
0p
1o
xn
xm
xl
xk
xj
xi
xh
xg
0f
1e
xd
xc
xb
xa
x`
x_
x^
x]
x\
x[
xZ
xY
xX
xW
xV
xU
xT
xS
xR
xQ
1P
xO
xN
xM
0L
1K
1J
xI
xH
xG
xF
xE
xD
xC
xB
xA
x@
0?
1>
x=
1<
x;
bx :
bx 9
bx 8
bx 7
bx 6
bx 5
b0 4
bx 3
bx 2
01
00
0/
bx .
bx -
bx ,
0+
0*
x)
x(
x'
z&
z%
z$
z#
z"
z!
$end
#10000000
0g
1i
0j
1y
1%"
14"
1&"
1z
1u
1l
1F"
1<"
0{
0'"
0@
0C"
09"
03"
0t
1G
1I"
1?"
1n
06"
0+"
0!"
0w
0C
0H"
0>"
05"
0,"
0""
0v
0k
0m
0M
0G"
0="
1|
1("
1F
0I
1H
1N
1O
1b
1a
0'#
0##
0l"
0k"
0h"
0e"
0c"
0a"
0O"
00#
0n"
0i"
0f"
0d"
0P"
0)
0(
0D#
b0 9
0F#
10
#20000000
00
11
#30000000
10
#40000000
00
01
1/
#50000000
10
#60000000
00
11
#70000000
10
#80000000
00
01
0/
#90000000
10
#100000000
00
11
#110000000
10
#120000000
1E"
1;"
0=
0*"
0~
1`
0_
1^
0\
1[
1Z
0Y
1X
0V
0U
0T
0S
0R
0Q
0Q"
1R"
0S"
1U"
0V"
0W"
1X"
0Y"
1["
1\"
1]"
1^"
1_"
1`"
1j"
0o"
1p"
1s"
1t"
0w"
0x"
1z"
0{"
1|"
1"#
1&#
0)#
0*#
0+#
1.#
1/#
11#
b11111111101010101011101100100010 .
b11111111101010101011101100100010 2
b11111111101010101011101100100010 7
b11111111101010101011101100100010 8
1+
00
01
1/
#130000000
10
#140000000
00
11
#150000000
10
#160000000
00
01
0/
#170000000
10
#180000000
00
11
#190000000
10
#200000000
0E"
0`
1_
1\
1Y
0X
1V
1U
1T
1Q"
0R"
0U"
0X"
1Y"
0["
0\"
0]"
0j"
1o"
0s"
0t"
1w"
1x"
0z"
1{"
0|"
1)#
1+#
0.#
0/#
b11111101010101010100010010001000 .
b11111101010101010100010010001000 2
b11111101010101010100010010001000 7
b11111101010101010100010010001000 8
00
01
1/
#210000000
10
#220000000
00
11
#230000000
10
#240000000
00
01
0/
#250000000
10
#260000000
00
11
#270000000
10
#280000000
0."
0o
07"
03#
1A#
0q"
1/"
1p
12#
18"
05#
17#
19#
0;#
0=#
1?#
1K"
0u"
1y"
1~"
00"
0$#
1$"
0(#
1x
b11001100 N"
1-#
0q
0c
0<
0:"
1C#
b1 M"
1b"
1;
1J"
1@"
12"
11"
1-"
0)"
1#"
0}
1s
1r
1d
1=
1*"
1~
1L"
0_
0^
0\
0[
0Z
0Y
0U
0P
1R"
1S"
1U"
1V"
1W"
1X"
1\"
0p"
1s"
1t"
0w"
0x"
1z"
1|"
0"#
0&#
0)#
1*#
0+#
1.#
1/#
b11001100101110111010101011111111 .
b11001100101110111010101011111111 2
b11001100101110111010101011111111 7
b11001100101110111010101011111111 8
1*
00
01
1/
#290000000
15#
13#
1u"
1;#
1=#
07#
0?#
1q"
1$#
1(#
0y"
b10111011 N"
0-#
0A"
0>
0$"
0x
1A
17"
1o
1E#
1B"
1?
1g"
1)"
1}
0B
08"
0p
0J
0D"
0K
0*"
0~
1D
19"
1t
1L
1E"
0h
0C#
1M
0E
0F
0N
b10 M"
0b"
1]
0W
0b
0m"
0T"
0r"
1v"
1}"
0!#
0%#
1,#
1Z"
1'#
1##
1l"
1k"
1h"
1e"
1c"
1a"
1O"
b1 4
1)
b11001100 -
b11001100 3
b11001100 5
04#
06#
18#
1:#
0<#
0>#
1@#
b11001100 ,
b11001100 6
b11001100 :
1B#
1(
b1 9
1D#
10
#300000000
00
11
#310000000
03#
0q"
15#
0;#
1=#
1u"
0$#
b10101010 N"
1(#
1>
0A"
1$"
0x
0A
0z
0u
18"
1p
0I"
0n
1F"
0<"
0%"
1y
1j
1B
1!"
1w
09"
0t
1I
1G"
1="
1'"
1{
1C#
0l
0D
0H
1F
b11 M"
1b"
0a
1b
0]
10#
1n"
1i"
1f"
1d"
1P"
0'#
0##
0l"
0k"
0h"
0e"
0c"
0a"
0O"
0,#
1%#
1!#
0v"
1r"
1m"
1T"
1F#
b10 9
0D#
0@#
1>#
1<#
08#
16#
b10111011 ,
b10111011 6
b10111011 :
14#
b10 4
b10111011 -
b10111011 3
b10111011 5
10
#320000000
00
01
0/
#330000000
13#
17#
1;#
1q"
1y"
1$#
1?#
15#
1A#
1-#
1u"
b11111111 N"
12#
0>
07"
0$"
0o
0A"
0g
1A
1<"
1%"
1u
1F"
1i
0E#
0B
0G"
0="
0&"
0j
0g"
0!"
0w
1I"
1n
1J
1C
1H"
1>"
1,"
1""
1k
0C#
1H
0I
0O
b0 M"
0b"
1]
0b
0m"
0T"
0!#
1'#
1##
1l"
1k"
1h"
1e"
1c"
1a"
1O"
b11 4
b10101010 -
b10101010 3
b10101010 5
04#
b10101010 ,
b10101010 6
b10101010 :
0<#
b11 9
1D#
10
#340000000
00
11
#350000000
05#
03#
0u"
0;#
0=#
0q"
0$#
b11001100 N"
0(#
1A"
1>
1$"
1x
0B"
0?
0)"
0}
1h
1D"
0E#
1&"
1z
1K
0g"
1*"
1~
1I"
1n
0L
0E"
1J
0C
0H"
0>"
0,"
0""
0k
0'"
0{
1C#
0M
1l
1D
0I
1N
1O
b1 M"
1b"
1a
1b
0]
00#
0n"
0i"
0f"
0d"
0P"
0'#
0##
0l"
0k"
0h"
0e"
0c"
0a"
0O"
1,#
1!#
1v"
1m"
1T"
0F#
b0 9
0D#
1@#
1<#
18#
b11111111 ,
b11111111 6
b11111111 :
14#
b0 4
b11111111 -
b11111111 3
b11111111 5
10
#360000000
13#
1;#
1=#
1q"
1$#
b11111101 N"
1(#
0K"
0$"
0x
1<
1)"
1}
0=
0*"
0~
1_
1^
1\
1[
1Z
1Y
1U
0R"
0S"
0U"
0V"
0W"
0X"
0\"
1p"
0s"
0t"
1w"
1x"
0z"
0|"
1"#
1&#
1)#
0*#
1+#
0.#
0/#
b11111101010101010100010010001000 .
b11111101010101010100010010001000 2
b11111101010101010100010010001000 7
b11111101010101010100010010001000 8
00
01
1/
#370000000
0A#
02#
0=#
09#
13#
1g
0(#
0~"
b1010101 N"
1q"
0>
0i
1x
1."
1E#
1K"
1?
1g"
1j
0y
0/"
0J
0h
0<
0D"
0K
0l
1{
1C"
13"
1L
1=
1E"
0C#
1M
1m
0|
0F
0N
b10 M"
0b"
0b
0r"
1'#
1##
1l"
1k"
1h"
1e"
1c"
1a"
1O"
b1 4
b11111101 -
b11111101 3
b11111101 5
b11111101 ,
b11111101 6
b11111101 :
06#
b1 9
1D#
10
#380000000
00
11
#390000000
03#
0q"
17#
0;#
1y"
b1000100 N"
0$#
1>
07"
1$"
0A
04"
1B"
1/"
0?"
0F"
1<"
0%"
1B
16"
0C"
03"
1I
1G"
1="
1'"
1C#
0m
0D
0H
1|
1F
b11 M"
1b"
0a
1b
1W
10#
1n"
1i"
1f"
1d"
1P"
0'#
0##
0l"
0k"
0h"
0e"
0c"
0a"
0O"
0Z"
0%#
0}"
1F#
b10 9
0D#
0B#
0>#
b1010101 ,
b1010101 6
b1010101 :
0:#
b10 4
b1010101 -
b1010101 3
b1010101 5
10
#400000000
00
01
0/
#410000000
1A#
12#
19#
07#
0?#
1~"
0y"
b10001000 N"
0-#
0g
0."
17"
1o
1i
14"
0<"
0E#
0u
0j
0g"
06"
1?"
1J
1v
1k
0C#
1H
1m
0|
0I
0O
b0 M"
0b"
1]
0b
0m"
0T"
0!#
1'#
1##
1l"
1k"
1h"
1e"
1c"
1a"
1O"
b11 4
b1000100 -
b1000100 3
b1000100 5
04#
b1000100 ,
b1000100 6
b1000100 :
0<#
b11 9
1D#
10
#420000000
00
11
#430000000
13#
1?#
05#
17#
1;#
1=#
1q"
1-#
0u"
1y"
1$#
b11111101 N"
1(#
0K"
0B"
0o
1A"
07"
0$"
0x
0?
0A
1h
1<
1D"
0E#
1u
1F"
1<"
1%"
1y
1K
0g"
1l
1B
1?"
0L
0=
0E"
1J
0v
0k
0G"
0="
0'"
0{
1C#
0M
0m
0D
1|
1E
0I
1N
1O
b1 M"
1b"
1a
1b
0W
00#
0n"
0i"
0f"
0d"
0P"
0'#
0##
0l"
0k"
0h"
0e"
0c"
0a"
0O"
1Z"
0,#
1}"
0v"
0F#
b0 9
0D#
1B#
0@#
1:#
b10001000 ,
b10001000 6
b10001000 :
08#
b0 4
b10001000 -
b10001000 3
b10001000 5
10
