serial_paralelo/serialparalelo.vcd
$date
	Sun Sep 27 17:29:51 2020
$end
$version
	Icarus Verilog
$end
$timescale
	100ps
$end
$scope module BUF $end
$var wire 1 ! A $end
$var wire 1 " Y $end
$upscope $end
$scope module Banco_serial_paralelo $end
$var wire 1 # valid_out $end
$var wire 1 $ valid $end
$var wire 1 % reset $end
$var wire 8 & data_out [7:0] $end
$var wire 1 ' data_in $end
$var wire 8 ( data2send [7:0] $end
$var wire 1 ) clk_4f $end
$var wire 1 * clk_32f $end
$var wire 1 + active $end
$scope module prob_s_p $end
$var wire 8 , data_out [7:0] $end
$var wire 8 - data2send [7:0] $end
$var reg 1 * clk_32f $end
$var reg 1 ) clk_4f $end
$var reg 1 ' data_in $end
$var reg 1 % reset $end
$var reg 1 $ valid $end
$upscope $end
$scope module s_p $end
$var wire 1 * clk_32f $end
$var wire 1 ) clk_4f $end
$var wire 1 ' data_in $end
$var wire 1 % reset $end
$var wire 1 $ valid $end
$var reg 3 . BC_counter [2:0] $end
$var reg 1 + active $end
$var reg 8 / data2send [7:0] $end
$var reg 8 0 data_out [7:0] $end
$var reg 1 1 dataout_on $end
$var reg 3 2 selector [2:0] $end
$var reg 1 # valid_out $end
$upscope $end
$upscope $end
$scope module DFF $end
$var wire 1 3 C $end
$var wire 1 4 D $end
$var reg 1 5 Q $end
$upscope $end
$scope module DFFSR $end
$var wire 1 6 C $end
$var wire 1 7 D $end
$var wire 1 8 R $end
$var wire 1 9 S $end
$var reg 1 : Q $end
$upscope $end
$scope module NAND $end
$var wire 1 ; A $end
$var wire 1 < B $end
$var wire 1 = Y $end
$upscope $end
$scope module NOR $end
$var wire 1 > A $end
$var wire 1 ? B $end
$var wire 1 @ Y $end
$upscope $end
$scope module NOT $end
$var wire 1 A A $end
$var wire 1 B Y $end
$upscope $end
$enddefinitions $end
#0
$dumpvars
zB
zA
x@
z?
z>
x=
z<
z;
x:
z9
z8
z7
z6
x5
z4
z3
b0 2
01
b0 0
b0 /
b0 .
b0 -
b0 ,
0+
1*
1)
b0 (
1'
b0 &
0%
1$
0#
z"
z!
$end
#10000000
0*
#20000000
0'
1*
#30000000
0*
#40000000
1'
1*
#50000000
0*
#60000000
1*
#70000000
0*
#80000000
1*
0)
#90000000
0*
#100000000
1*
#110000000
0*
#120000000
0'
1*
#130000000
0*
#140000000
1*
#150000000
0*
#160000000
1'
1*
1)
#170000000
0*
#180000000
0'
1*
#190000000
0*
#200000000
1'
1*
#210000000
0*
#220000000
1*
#230000000
0*
#240000000
1*
0)
#250000000
0*
#260000000
1*
#270000000
0*
#280000000
0'
1*
#290000000
0*
#300000000
1*
#310000000
0*
#320000000
1'
1%
1*
1)
#330000000
0*
#340000000
0'
b1 2
b10000000 (
b10000000 -
b10000000 /
1*
#350000000
0*
#360000000
b10 2
1'
1*
#370000000
0*
#380000000
b11 2
b10100000 (
b10100000 -
b10100000 /
1*
#390000000
0*
#400000000
b100 2
b10110000 (
b10110000 -
b10110000 /
1*
0)
#410000000
0*
#420000000
b101 2
b10111000 (
b10111000 -
b10111000 /
1*
#430000000
0*
#440000000
b110 2
b10111100 (
b10111100 -
b10111100 /
0'
1*
#450000000
0*
#460000000
b111 2
1*
#470000000
0*
#480000000
b1 .
b0 2
1'
1*
1)
#490000000
0*
#500000000
0'
b1 2
1*
#510000000
0*
#520000000
b10 2
1'
1*
#530000000
0*
#540000000
b11 2
1*
#550000000
0*
#560000000
b100 2
1*
0)
#570000000
0*
#580000000
b101 2
1*
#590000000
0*
#600000000
b110 2
0'
1*
#610000000
0*
#620000000
b111 2
1*
#630000000
0*
#640000000
b10 .
b0 2
1'
1*
1)
#650000000
0*
#660000000
0'
b1 2
1*
#670000000
0*
#680000000
b10 2
1'
1*
#690000000
0*
#700000000
b11 2
1*
#710000000
0*
#720000000
b100 2
1*
0)
#730000000
0*
#740000000
b101 2
1*
#750000000
0*
#760000000
b110 2
0'
1*
#770000000
0*
#780000000
b111 2
1*
#790000000
0*
#800000000
b11 .
b0 2
1'
1*
1)
#810000000
0*
#820000000
0'
b1 2
1*
#830000000
0*
#840000000
b10 2
1'
1*
#850000000
0*
#860000000
b11 2
1*
#870000000
0*
#880000000
b100 2
1*
0)
#890000000
0*
#900000000
b101 2
1*
#910000000
0*
#920000000
b110 2
0'
1*
#930000000
0*
#940000000
b111 2
1*
#950000000
0*
#960000000
b100 .
b0 2
1'
1*
1)
#970000000
0*
#980000000
0'
b1 2
1*
#990000000
0*
#1000000000
b10 2
1'
1*
#1010000000
0*
#1020000000
b11 2
1*
#1030000000
0*
#1040000000
b100 2
1*
0)
#1050000000
0*
#1060000000
b101 2
1*
#1070000000
0*
#1080000000
b110 2
0'
1*
#1090000000
0*
#1100000000
b111 2
1*
#1110000000
0*
#1120000000
1+
b101 .
b0 2
1'
1*
1)
#1130000000
0*
#1140000000
b1 2
1*
#1150000000
0*
#1160000000
b10 2
b11111100 (
b11111100 -
b11111100 /
1*
#1170000000
0*
#1180000000
b11 2
1*
#1190000000
0*
#1200000000
b100 2
0'
1*
0)
#1210000000
0*
#1220000000
b101 2
b11110100 (
b11110100 -
b11110100 /
1*
#1230000000
0*
#1240000000
b110 2
b11110000 (
b11110000 -
b11110000 /
1*
#1250000000
0*
#1260000000
b111 2
1*
#1270000000
0*
#1280000000
11
1#
b0 2
1'
1*
1)
#1290000000
0*
#1300000000
b1 2
b10000000 &
b10000000 ,
b10000000 0
1*
#1310000000
0*
#1320000000
b10 2
b11000000 &
b11000000 ,
b11000000 0
1*
#1330000000
0*
#1340000000
b11 2
b11100000 &
b11100000 ,
b11100000 0
1*
#1350000000
0*
#1360000000
b100 2
b11110000 &
b11110000 ,
b11110000 0
0'
1*
0)
#1370000000
0*
#1380000000
b101 2
1*
#1390000000
0*
#1400000000
b110 2
1*
#1410000000
0*
#1420000000
b111 2
1*
#1430000000
0*
#1440000000
b0 2
0$
1'
1*
1)
#1450000000
0*
#1460000000
b1 2
b1110000 &
b1110000 ,
b1110000 0
1*
#1470000000
0*
#1480000000
b10 2
b110000 &
b110000 ,
b110000 0
b10110000 (
b10110000 -
b10110000 /
1*
#1490000000
0*
#1500000000
b11 2
b10000 &
b10000 ,
b10000 0
1*
#1510000000
0*
#1520000000
b100 2
b0 &
b0 ,
b0 0
0'
1*
0)
#1530000000
0*
#1540000000
b101 2
b10111000 (
b10111000 -
b10111000 /
1*
#1550000000
0*
#1560000000
b110 2
b10111100 (
b10111100 -
b10111100 /
1*
#1570000000
0*
#1580000000
b111 2
1*
#1590000000
0*
#1600000000
0#
b110 .
b0 2
1*
1)
#1610000000
0*
#1620000000
b1 2
1*
#1630000000
0*
#1640000000
b10 2
1*
#1650000000
0*
#1660000000
b11 2
1*
#1670000000
0*
#1680000000
b100 2
1'
1*
0)
#1690000000
0*
#1700000000
b101 2
1*
#1710000000
0*
#1720000000
b110 2
1*
#1730000000
0*
#1740000000
b111 2
1*
#1750000000
0*
#1760000000
b111 .
b0 2
1*
1)
