serial_paralelo/serialparalelo.vcd
$date
	Sat Sep 26 22:49:05 2020
$end
$version
	Icarus Verilog
$end
$timescale
	100ps
$end
$scope module BUF $end
$var wire 1 ! A $end
$var wire 1 " Y $end
$upscope $end
$scope module DFF $end
$var wire 1 # C $end
$var wire 1 $ D $end
$var reg 1 % Q $end
$upscope $end
$scope module DFFSR $end
$var wire 1 & C $end
$var wire 1 ' D $end
$var wire 1 ( R $end
$var wire 1 ) S $end
$var reg 1 * Q $end
$upscope $end
$scope module NAND $end
$var wire 1 + A $end
$var wire 1 , B $end
$var wire 1 - Y $end
$upscope $end
$scope module NOR $end
$var wire 1 . A $end
$var wire 1 / B $end
$var wire 1 0 Y $end
$upscope $end
$scope module NOT $end
$var wire 1 1 A $end
$var wire 1 2 Y $end
$upscope $end
$scope module banco_paralelo_serial $end
$var wire 1 3 valid_out $end
$var wire 1 4 valid $end
$var wire 1 5 reset $end
$var wire 8 6 data_out [7:0] $end
$var wire 1 7 data_in $end
$var wire 8 8 data2send [7:0] $end
$var wire 1 9 clk_4f $end
$var wire 1 : clk_32f $end
$var wire 1 ; active $end
$scope module prob_s_p $end
$var wire 8 < data_out [7:0] $end
$var wire 8 = data2send [7:0] $end
$var reg 1 : clk_32f $end
$var reg 1 9 clk_4f $end
$var reg 1 7 data_in $end
$var reg 1 5 reset $end
$var reg 1 4 valid $end
$upscope $end
$scope module s_p $end
$var wire 1 : clk_32f $end
$var wire 1 9 clk_4f $end
$var wire 1 7 data_in $end
$var wire 1 5 reset $end
$var wire 1 4 valid $end
$var reg 3 > BC_counter [2:0] $end
$var reg 1 ; active $end
$var reg 8 ? data2send [7:0] $end
$var reg 8 @ data_out [7:0] $end
$var reg 1 A dataout_on $end
$var reg 3 B selector [2:0] $end
$var reg 1 3 valid_out $end
$upscope $end
$upscope $end
$enddefinitions $end
#0
$dumpvars
b0 B
0A
b0 @
b0 ?
b0 >
b0 =
b0 <
0;
1:
19
b0 8
17
b0 6
05
04
03
z2
z1
x0
z/
z.
x-
z,
z+
x*
z)
z(
z'
z&
x%
z$
z#
z"
z!
$end
#10000000
0:
#20000000
07
1:
#30000000
0:
#40000000
17
1:
#50000000
0:
#60000000
1:
#70000000
0:
#80000000
1:
09
#90000000
0:
#100000000
1:
#110000000
0:
#120000000
07
1:
#130000000
0:
#140000000
1:
#150000000
0:
#160000000
15
17
1:
19
#170000000
0:
#180000000
07
b10000000 8
b10000000 =
b10000000 ?
1:
#190000000
0:
#200000000
17
1:
#210000000
0:
#220000000
1:
#230000000
0:
#240000000
1:
09
#250000000
0:
#260000000
1:
#270000000
0:
#280000000
07
1:
#290000000
0:
#300000000
1:
#310000000
0:
#320000000
17
14
1:
19
#330000000
0:
#340000000
07
1:
#350000000
0:
#360000000
b0 8
b0 =
b0 ?
17
1:
#370000000
0:
#380000000
b10000000 8
b10000000 =
b10000000 ?
1:
#390000000
0:
#400000000
1:
09
#410000000
0:
#420000000
1:
#430000000
0:
#440000000
07
1:
#450000000
0:
#460000000
b0 8
b0 =
b0 ?
1:
#470000000
0:
#480000000
17
1:
19
#490000000
0:
#500000000
07
b10000000 8
b10000000 =
b10000000 ?
1:
#510000000
0:
#520000000
b0 8
b0 =
b0 ?
17
1:
#530000000
0:
#540000000
b10000000 8
b10000000 =
b10000000 ?
1:
#550000000
0:
#560000000
1:
09
#570000000
0:
#580000000
1:
#590000000
0:
#600000000
07
1:
#610000000
0:
#620000000
b0 8
b0 =
b0 ?
1:
#630000000
0:
#640000000
17
1:
19
#650000000
0:
#660000000
07
b10000000 8
b10000000 =
b10000000 ?
1:
#670000000
0:
#680000000
b0 8
b0 =
b0 ?
17
1:
#690000000
0:
#700000000
b10000000 8
b10000000 =
b10000000 ?
1:
#710000000
0:
#720000000
1:
09
#730000000
0:
#740000000
1:
#750000000
0:
#760000000
07
1:
#770000000
0:
#780000000
b0 8
b0 =
b0 ?
1:
#790000000
0:
#800000000
04
1:
19
#810000000
0:
#820000000
b10000000 8
b10000000 =
b10000000 ?
1:
#830000000
0:
#840000000
1:
#850000000
0:
#860000000
1:
#870000000
0:
#880000000
1:
09
#890000000
0:
#900000000
1:
#910000000
0:
#920000000
1:
#930000000
0:
#940000000
1:
#950000000
0:
#960000000
14
1:
19
#970000000
0:
#980000000
b0 8
b0 =
b0 ?
1:
